,Point Group,Species,Name
0,C∞v,HD,Deuterium hydride
1,C∞v,HeH,Helium hydride
2,C∞v,LiH,Lithium Hydride
3,C∞v,HeLi+,Helium Lithium cation
4,C∞v,BeH,beryllium monohydride
5,C∞v,BeH2+,Beryllium dihydride cation
6,C∞v,BH,Boron monohydride
7,C∞v,CH,Methylidyne
8,C∞v,NH,Imidogen
9,C∞v,OH,Hydroxyl radical
10,C∞v,DO,Hydroxyl-d
11,C∞v,HF,Hydrogen fluoride
12,C∞v,DF,Hydrofluoric acid-d
13,C∞v,NeH,neon hydrogen
14,C∞v,NaH,sodium hydride
15,C∞v,MgH,magnesium monohydride
16,C∞v,AlH,aluminum monohydride
17,C∞v,SiH,Silylidyne
18,C∞v,PH,phosphorus monohydride
19,C∞v,DS,Mercapto-d
20,C∞v,HS,Mercapto radical
21,C∞v,HCl,Hydrogen chloride
22,C∞v,DCl,Hydrochloric acid-d
23,C∞v,ArH+,Argon hydride cation
24,C∞v,H2Ar,H2 Ar dimer
25,C∞v,KH,Potassium hydride
26,C∞v,CaH,Calcium monohydride
27,C∞v,ScH,Scandium monohydride
28,C∞v,TiH,Titanium monohydride
29,C∞v,CrH,Chromium hydride
30,C∞v,CuH,Copper monohydride
31,C∞v,ZnH,Zinc monohydride
32,C∞v,GaH,Gallium monohydride
33,C∞v,GeH,germylidene
34,C∞v,AsH,Arsenic monohydride
35,C∞v,HSe,Selenium monohydride
36,C∞v,HBr,hydrogen bromide
37,C∞v,KrH+,Protonated Krypton
38,C∞v,SbH,Antimony monohydride
39,C∞v,TeH,Telluryl radical
40,C∞v,HI,Hydrogen iodide
41,C∞v,XeH+,"Xenon, protonated"
42,C∞v,LiBe,Lithium Beryllium
43,C∞v,LiB,Lithium boride
44,C∞v,BeB,Beryllium monoboride
45,C∞v,LiC,Lithium Carbide
46,C∞v,BeC,Beryllium Carbide
47,C∞v,BC,boron monocarbide
48,C∞v,C2H,Ethynyl radical
49,C∞v,LiN,Lithium Nitride
50,C∞v,BeN,Beryllium mononitride
51,C∞v,BN,boron nitride
52,C∞v,CN,Cyano radical
53,C∞v,HNB,hydrogen nitrogen boron
54,C∞v,HCN,Hydrogen cyanide
55,C∞v,HNC,hydrogen isocyanide
56,C∞v,NNH+,Dinitrogen monohydride cation
57,C∞v,HBNH,Boranimine
58,C∞v,HCNH+,N-protonated HCN
59,C∞v,LiO,lithium oxide
60,C∞v,BeO,beryllium oxide
61,C∞v,BO,boron monoxide
62,C∞v,CO,Carbon monoxide
63,C∞v,NO,Nitric oxide
64,C∞v,LiOH,lithium hydroxide
65,C∞v,BeOH,beryllium monohydroxide
66,C∞v,HBO,Boron hydride oxide
67,C∞v,HCO+,Formyl cation
68,C∞v,COH+,"Carbon Monoxide, protonated"
69,C∞v,HO2,Hydroperoxy radical
70,C∞v,LiF,lithium fluoride
71,C∞v,BeF,Beryllium monofluoride
72,C∞v,BF,Boron monofluoride
73,C∞v,CF,Fluoromethylidyne
74,C∞v,NF,nitrogen fluoride
75,C∞v,FO,Oxygen monofluoride
76,C∞v,LiNe+,Lithium Neon cation
77,C∞v,NaLi,lithium sodium
78,C∞v,NaBe,Sodium Beryllium
79,C∞v,NaO,sodium monoxide
80,C∞v,NaF,sodium fluoride
81,C∞v,NaOH,sodium hydroxide
82,C∞v,LiMg,Lithium magnesium
83,C∞v,BeMg,Beryllium Magnesium
84,C∞v,MgN,Magnesium Nitride
85,C∞v,MgO,magnesium oxide
86,C∞v,MgF,Magnesium monofluoride
87,C∞v,NaMg,Sodium Magnesium
88,C∞v,MgOH,magnesium hydroxide
89,C∞v,LiAl,Lithium Aluminum
90,C∞v,BAl,Boron Aluminum
91,C∞v,AlC,Aluminum carbide
92,C∞v,AlN,Aluminum nitride
93,C∞v,AlO,Aluminum monoxide
94,C∞v,AlF,Aluminum monofluoride
95,C∞v,NaAl,Sodium aluminum
96,C∞v,BSi,Boron silicide
97,C∞v,SiC,silicon monocarbide
98,C∞v,SiN,Silicon nitride
99,C∞v,SiO,Silicon monoxide
100,C∞v,SiF,silicon monofluoride
101,C∞v,LiP,Lithium monophosphide
102,C∞v,BP,Boron monophosphide
103,C∞v,CP,Carbon monophosphide
104,C∞v,PN,Phosphorus mononitride
105,C∞v,PO,Phosphorus monoxide
106,C∞v,PF,phosphorus monofluoride
107,C∞v,AlP,Aluminum monophosphide
108,C∞v,SiP,Silicon monophosphide
109,C∞v,HCP,Phosphaethyne
110,C∞v,LiS,Lithium monosulfide
111,C∞v,BeS,beryllium sulfide
112,C∞v,BS,boron sulfide
113,C∞v,CS,carbon monosulfide
114,C∞v,NS,Mononitrogen monosulfide
115,C∞v,SO,Sulfur monoxide
116,C∞v,SF,Monosulfur monofluoride
117,C∞v,NaS,Sodium sulfide
118,C∞v,MgS,magnesium sulfide
119,C∞v,AlS,Aluminum sulfide
120,C∞v,SiS,silicon monosulfide
121,C∞v,PS,phosphorus sulfide
122,C∞v,HBS,hydrogen boron sulfide
123,C∞v,HCS,Thioformyl radical
124,C∞v,LiCl,lithium chloride
125,C∞v,BeCl,beryllium monochloride
126,C∞v,BCl,boron monochloride
127,C∞v,CCl,carbon monochloride
128,C∞v,NCl,nitrogen monochloride
129,C∞v,ClO,Monochlorine monoxide
130,C∞v,ClF,Chlorine monofluoride
131,C∞v,NaCl,Sodium Chloride
132,C∞v,MgCl,magnesium monochloride
133,C∞v,AlCl,Aluminum monochloride
134,C∞v,SiCl,Clorosilylidyne
135,C∞v,PCl,phosphorus chloride
136,C∞v,SCl,sulfur monochloride
137,C∞v,HCCl,Chloromethylene
138,C∞v,LiK,Lithium Potassium
139,C∞v,KO,Potassium monoxide
140,C∞v,KF,Potassium Fluoride
141,C∞v,NaK,Sodium Potassium
142,C∞v,KCl,Potassium Chloride
143,C∞v,KOH,Potassium hydroxide
144,C∞v,CaC,Calcium monocarbide
145,C∞v,CaO,Calcium monoxide
146,C∞v,CaF,Calcium monofluoride
147,C∞v,CaS,Calcium sulfide
148,C∞v,CaCl,calcium monochloride
149,C∞v,CaOH,Calcium monohydroxide
150,C∞v,ScO,Scandium monoxide
151,C∞v,ScF,Scandium monofluoride
152,C∞v,TiN,Titanium mononitride
153,C∞v,TiO,Titanium monoxide
154,C∞v,TiCl,Titanium Monochloride
155,C∞v,VO,Vanadium monoxide
156,C∞v,CuO,Copper Monoxide
157,C∞v,CuF,Copper monofluoride
158,C∞v,CuCl,Copper monochloride
159,C∞v,ZnO,zinc monoxide
160,C∞v,ZnF,Zinc monofluoride
161,C∞v,ZnS,Zinc sulfide
162,C∞v,ZnCl,Zinc monochloride
163,C∞v,BGa,Boron Gallium
164,C∞v,GaN,Gallium mononitride
165,C∞v,GaO,Gallium monoxide
166,C∞v,GaF,Gallium monofluoride
167,C∞v,AlGa,Aluminum Gallium
168,C∞v,GaP,Gallium monophosphide
169,C∞v,GaS,Gallium monosulfide
170,C∞v,GaCl,Gallium monochloride
171,C∞v,GeC,Germanium monocarbide
172,C∞v,GeO,Germanium monoxide
173,C∞v,GeF,Germanium monofluoride
174,C∞v,SiGe,Silicon Germanium
175,C∞v,GeS,Germanium monosulfide
176,C∞v,GeCl,Germanium monochloride
177,C∞v,AsN,Arsenic mononitride
178,C∞v,AsO,Arsenic monoxide
179,C∞v,AsF,Arsenic monofluoride
180,C∞v,AsP,Arsenic monophosphide
181,C∞v,AsS,Arsenic monosulfide
182,C∞v,AsCl,Arsenic monochloride
183,C∞v,GaAs,Gallium arsenide
184,C∞v,LiSe,Lithium monoselenide
185,C∞v,CSe,Carbon monoselenide
186,C∞v,NSe,Nitrogen monoselenide
187,C∞v,SeO,Selenium monoxide
188,C∞v,SeF,Selenium monofluoride
189,C∞v,SiSe,Silicon Monoselenide
190,C∞v,PSe,Phosphorus monoselenide
191,C∞v,SeS,Selenium monosulfide
192,C∞v,SeCl,Selenium monochloride
193,C∞v,GeSe,Germanium monoselenide
194,C∞v,AsSe,Arsenic monoselenide
195,C∞v,LiBr,Lithium Bromide
196,C∞v,BBr,Boron monobromide
197,C∞v,CBr,Carbon monobromide
198,C∞v,NBr,nitrogen monobromide
199,C∞v,BrO,Bromine monoxide
200,C∞v,BrF,Bromine monofluoride
201,C∞v,NaBr,Sodium Bromide
202,C∞v,AlBr,Aluminum monobromide
203,C∞v,SiBr,Silicon monobromide
204,C∞v,PBr,Phosphorus monobromide
205,C∞v,SBr,Sulfur monobromide radical
206,C∞v,BrCl,Bromine monochloride
207,C∞v,CaBr,Calcium monobromide
208,C∞v,KBr,Potassium Bromide
209,C∞v,GaBr,Gallium monobromide
210,C∞v,SeBr,Selenium monobromide
211,C∞v,SbN,Antimony nitride
212,C∞v,SbF,Antimony monofluoride
213,C∞v,SbCl,Antimony monochloride
214,C∞v,TeO,Tellurium monoxide
215,C∞v,LiI,Lithium Iodide
216,C∞v,IO,Iodine monoxide
217,C∞v,IF,Iodine monofluoride
218,C∞v,NaI,Sodium Iodide
219,C∞v,AlI,Aluminum monoiodide
220,C∞v,ICl,Iodine monochloride
221,C∞v,KI,Potassium Iodide
222,C∞v,IBr,Iodine monobromide
223,C∞v,LiCN,lithium cyanide
224,C∞v,CNN,Diazocarbene
225,C∞v,N3+,azide cation
226,C∞v,HCCN,cyanomethylene
227,C∞v,CCO,Dicarbon monoxide
228,C∞v,NCO,isocyanato radical
229,C∞v,CNO-,fulminate
230,C∞v,CO2+,Carbon dioxide cation
231,C∞v,N2O,Nitrous oxide
232,C∞v,HCCO,ketenyl radical
233,C∞v,HCNO,fulminic acid
234,C∞v,HNNO+,"Nitrous oxide, N-protonated"
235,C∞v,FCN,Cyanogen fluoride
236,C∞v,FBO,Boron monofluoride monoxide
237,C∞v,CNF,iso cyanogen fluoride
238,C∞v,FCO+,Carbonyl fluoride cation
239,C∞v,F3-,trifluoride anion
240,C∞v,HCCF,Fluoroacetylene
241,C∞v,NaCN,Sodium Cyanide
242,C∞v,AlCN,Aluminum monocyanide
243,C∞v,AlNC,Aluminum isocyanide
244,C∞v,PPO,Phosphorus oxide phosphide
245,C∞v,OCS,Carbonyl sulfide
246,C∞v,NNS,Nitrogen sulfide
247,C∞v,SCN,thiocyanato radical
248,C∞v,SNO,Nitrogen oxide sulfide
249,C∞v,HNCS,Isothiocyanic acid
250,C∞v,ClCN,chlorocyanogen
251,C∞v,ClCO,carbonyl monochloride
252,C∞v,HCCCl,Chloroacetylene
253,C∞v,KCN,Potassium cyanide
254,C∞v,CuCN,Copper cyanide
255,C∞v,ZnCN,Zinc monocyanide
256,C∞v,ZnNC,Zinc isocyanide
257,C∞v,OCSe,Carbonyl selenide
258,C∞v,SCSe,Carbon sulfide selenide
259,C∞v,BrCN,Cyanogen bromide
260,C∞v,HCCBr,bromoacetylene
261,C∞v,SCTe,Carbon sulfide Telluride
262,C∞v,ICN,Cyanogen iodide
263,C∞v,C4H2,Diacetylene
264,C∞v,HCCCN,Cyanoacetylene
265,C∞v,C3O,Tricarbon monoxide
266,C1,CH3O,Methoxy radical
267,C1,CH2OH,Hydroxymethyl radical
268,C1,CH3OH+,Methyl alcohol cation
269,C1,NH2OH2+,protonated hydroxylamine
270,C1,HOSH,hydrogen thioperoxide
271,C1,C3H7,n-Propyl radical
272,C1,NHCHNH2,aminomethanimine
273,C1,CH2CHNH2,aminoethene
274,C1,NH2NO,Nitrosamide
275,C1,CHONH2,formamide
276,C1,CNOH3,"1,2-oxaziridine"
277,C1,CH2OOH,CH2OOH radical
278,C1,H2OH2CO,water formaldehyde dimer
279,C1,CH3OOH,Methyl peroxide
280,C1,CH3CHOH,1-hydroxy-ethyl radical
281,C1,CH2CH2OH,2-hydroxy ethyl radical
282,C1,CH3OCH2,methoxymethyl radical
283,C1,NH2CH2OH,aminomethanol
284,C1,CH3CH2OH,Ethanol
285,C1,H2OCH3OH,water methanol dimer
286,C1,CH2FOH,fluoromethanol
287,C1,CH3SSH,Hydrogen methyl disulfide
288,C1,CH3CH2SH,ethanethiol
289,C1,CHFCl,Chlorofluoromethyl radical
290,C1,HOClO,Chlorous acid
291,C1,CHClCH3,1-chloroethyl radical
292,C1,C4H6,1-Methylcyclopropene
293,C1,CH2CHCH2CH3,1-Butene
294,C1,CH3CHCH2CH3,2-Butyl radical
295,C1,CH3NHN2+,"methyl azide, protonated"
296,C1,CH5N3,Guanidine
297,C1,HOCH2CN,cyanomethanol
298,C1,NH2COOH,Carbamic acid
299,C1,HCOOHH2O,Formic acid water dimer
300,C1,H2OHCOOH,Water formic acid dimer 1
301,C1,H2OHCOOH,Water formic acid dimer 2
302,C1,HOCH2OOH,hydroxy methyl peroxide
303,C1,CH3CONH2,Acetamide
304,C1,CH2C(OH)NH2,1-amino vinyl alchohol
305,C1,C3H6O,Propylene oxide
306,C1,C3H6O,2-Propen-1-ol
307,C1,C3H5OH,Cyclopropanol
308,C1,CH3COHCH3+,"acetone, protonated"
309,C1,HOCH2CH2NH2,monoethanolamine
310,C1,CH3CHOHCH3,Isopropyl alcohol
311,C1,H2OCH3OCH3,water dimethylether dimer
312,C1,CH2CHCH2F,Allyl Fluoride
313,C1,CH2FCH2OH,2-fluoroethanol
314,C1,CH2FCH2CH3,1-Fluoropropane
315,C1,HSO3,Hydroxysulfonyl radical
316,C1,CH3CSNH2,Ethanethioamide
317,C1,C3H6S,"Thiirane, methyl-"
318,C1,HClO3,Chloric Acid
319,C1,CH2ClCHO,chloroacetaldehyde
320,C1,CH2FCH2Cl,"Ethane, 1-chloro-2-fluoro-"
321,C1,CH3CHFCl,"Ethane, 1-chloro-1-fluoro-"
322,C1,CH2ClCH2OH,2-Chloroethanol
323,C1,CH2ClCH2OH2+,"2-chloroethanol, protonated"
324,C1,CH2ClCH2CH3,"Propane, 1-chloro-"
325,C1,CHFClBr,fluorochlorobromomethane
326,C1,CHFClI,fluorochloroiodomethane
327,C1,C5H8,"1,2-Pentadiene"
328,C1,CH2CHCH2CH2CH3,1-pentene
329,C1,C5H10,Cyclopentane
330,C1,C5H10,"1-Butene, 2-methyl-"
331,C1,C5H10,"2-Pentene, (Z)-"
332,C1,C5H11,2-Methylbut-2-yl radical
333,C1,C5H12,"Butane, 2-methyl-"
334,C1,C3H10N2,"1,2-Diaminopropane"
335,C1,C(CH3)3NH2,"2-Propanamine, 2-methyl-"
336,C1,C(NH2)H2C(CH3)HCH3,"1-Propanamine, 2-methyl-"
337,C1,C(NH2)H2CH2CH2CH3,1-Butanamine
338,C1,CH3C(NH2)HCH2CH3,2-Butanamine
339,C1,HOONO2,peroxy nitric acid
340,C1,C3H4O2,propanedial
341,C1,HOCH2COOH,Hydroxyacetic acid
342,C1,CH2CHCONH2,Acrylamide
343,C1,CH3OCH2CN,Methoxyacetonitrile
344,C1,CH2CHOCHCH2,Vinyl ether
345,C1,C4H6O,"Furan, 2,3-dihydro-"
346,C1,HCOOC2H5,Ethyl formate
347,C1,C3H6O2,"1,3-Dioxolane"
348,C1,C3H7NO,dimethylformamide
349,C1,C3H7NO,Propanamide
350,C1,CH3COCH2CH3,2-Butanone
351,C1,C2H3OC2H5,"Ethene, ethoxy-"
352,C1,CH2C(CH3)OCH3,"1-Propene, 2-methoxy-"
353,C1,C3H8O2,Propylene glycol
354,C1,C3H8O2,"1,3-Propanediol"
355,C1,C3H8O2,"Hydroperoxide, 1-methylethyl"
356,C1,C4H10O,1-Butanol
357,C1,C4H10O,"Ethanol, 1,1-dimethyl-"
358,C1,C4H10O,"1-Propanol, 2-methyl-"
359,C1,C4H10O,Methyl propyl ether
360,C1,C4H10O,"Propane, 2-methoxy-"
361,C1,C4H10O,"2-Butanol, (.+/-.)-"
362,C1,CHF2CH2F,"Ethane, 1,1,2-trifluoro"
363,C1,CH3CHFCH2CH3,2-fluorobutane
364,C1,C4H9F,1-fluorobutane
365,C1,HSO3F,Fluorosulfonic acid
366,C1,CH5N3S,Hydrazinecarbothioamide
367,C1,C4H6S,"Thiophene, 2,3-dihydro-"
368,C1,C4H8S,"Thiophene, tetrahydro-"
369,C1,CH2(SH)CH(CH3)CH3,"1-Propanethiol, 2-methyl-"
370,C1,CH3CH(SH)CH2CH3,2-Butanethiol
371,C1,CH3C(SCH3)HCH3,"Propane, 2-(methylthio)-"
372,C1,CHCl2CHO,dichloroacetaldehyde
373,C1,CH2ClCHCl2,"1,1,2-trichloroethane"
374,C1,C3H5ClO,"Oxirane, (chloromethyl)-"
375,C1,CH2ClCHClCH3,"Propane, 1,2-dichloro-"
376,C1,CHCl2CH2CH3,"1,1-dichloropropane"
377,C1,CH2CHCHClCH3,"1-Butene, 3-chloro-"
378,C1,CH2ClCHCHCH3,"2-Butene, 1-chloro-"
379,C1,CH2CHCH2CH2Cl,"1-Butene, 4-chloro-"
380,C1,CHClCHCH2CH3,(E)-1-Chloro-1-butene
381,C1,CH3CHClCH2CH3,"Butane, 2-chloro-"
382,C1,CFClBrI,fluorochlorobromoiodomethane
383,C1,C6H8,Bicyclo[3.1.0]hex-2-ene
384,C1,C6H8,3-Methylenecyclopentene
385,C1,C6H10,"Cyclopentene, 1-methyl-"
386,C1,C6H10,"Cyclopentene, 3-methyl-"
387,C1,C6H10,"Cyclopentene, 4-methyl-"
388,C1,C6H10,"1,4-Hexadiene, (Z)-"
389,C1,C6H10,"1,4-Hexadiene, (E)-"
390,C1,C6H12,"Cyclopentane, methyl-"
391,C1,C6H12,hex-1-ene
392,C1,C6H12,(E)-3-methylpent-2-ene
393,C1,C6H12,3-methylenepentane
394,C1,C6H12,(Z)-3-methylpent-2-ene
395,C1,C6H12,(E)-2-Hexene
396,C1,C6H12,Ethylcyclobutane
397,C1,C6H12,(Z)-hex-2-ene
398,C1,C6H12,"cis-1,2-dimethylcyclobutane"
399,C1,C6H14,"Butane, 2,2-dimethyl-"
400,C1,C6H14,"Pentane, 2-methyl-"
401,C1,CH3N5,5-Aminotetrazole
402,C1,C2H4N4,"2H-Tetrazole, 2-methyl-"
403,C1,C4H6N2,"1H-Imidazole, 2-methyl-"
404,C1,C5H7N,"1H-Pyrrole, 1-methyl-"
405,C1,C5H7N,(E)-3-Pentenenitrile
406,C1,C5H7N,(Z)-2-Pentenenitrile
407,C1,C5H9N,"1,2,3,6-Tetrahydropyridine"
408,C1,C5H9N,"Butanenitrile, 2-methyl-"
409,C1,C4H12N2,"1,2-Butanediamine"
410,C1,C4H4O2,"2-Oxetanone, 4-methylene-"
411,C1,C4H5NO,"Isoxazole, 5-methyl-"
412,C1,C4H5NO,3-Methylisoxazole
413,C1,C2H5NO3,"Nitric acid, ethyl ester"
414,C1,C5H6O,2H-Pyran
415,C1,C5H6O,2-methylfuran
416,C1,C4H6O2,"2-Propenoic acid, methyl ester"
417,C1,C4H6O2,γ–Butyrolactone
418,C1,C2H6N2O2,Dimethylnitroamine
419,C1,C4H7NO,Methacrylamide
420,C1,C4H7NO,2-Pyrrolidinone
421,C1,NH2COOC2H5,Urethane
422,C1,CH3CH(NH2)COOH,Alanine
423,C1,NH2CH2CH2COOH,β–alanine
424,C1,CH3NHCH2COOH,Sarcosine
425,C1,CH3CH(CH3)ONO,Isopropyl nitrite
426,C1,C3H7ONO,Propyl nitrite
427,C1,C5H8O,"2H-Pyran, 3,4-dihydro-"
428,C1,C5H8O,"Furan, 2,3-dihydro-5-methyl-"
429,C1,C4H8O2,Butanoic acid
430,C1,C4H8O2,"1,3-Dioxolane, 2-methyl-"
431,C1,C4H8O2,"1,3-Dioxane"
432,C1,N(CH3)2CONH2,"Urea, N,N-dimethyl-"
433,C1,NH2CONHC2H5,"Urea, ethyl-"
434,C1,C3H8O3,"1,2,3-Propanetriol"
435,C1,C4H9NO,Butanamide
436,C1,C4H9NO,"Propanamide, 2-methyl-"
437,C1,C5H10O,2-methylbutyraldehyde
438,C1,C5H10O,Cyclopentanol
439,C1,C5H10O,2-Pentanone
440,C1,C5H10O,"2-Butanone, 3-methyl-"
441,C1,C4H10O2,"1,3-Butanediol"
442,C1,C5H12O,"1-Butanol, 2-methyl-"
443,C1,C5H12O,3-Pentanol
444,C1,C5H12O,"2-Butanol, 3-methyl-"
445,C1,C5H12O,2-Pentanol
446,C1,C3H4S3,"1,3-Dithiolane-2-thione"
447,C1,C4H5NS,4-Methylthiazole
448,C1,C4H6OS,Dihydro-3-(2H)-thiophenone
449,C1,C4H6OS,Dihydro-2-(3H)-thiophenone
450,C1,C4H6OS,"4,5-dihydrothiophene-3-ol"
451,C1,C4H6OS,"2,5-dihydrothiophene-3-ol"
452,C1,C4H6OS,"4,5-dihydrothiophene-2-ol"
453,C1,C4H6OS,"2,3-dihydrothiophene-2-ol"
454,C1,CH6N4S,Carbonothioic dihydrazide
455,C1,C2H6O3S,"Sulfurous acid, dimethyl ester"
456,C1,C3H6S3,"Carbonotrithioic acid, dimethyl ester"
457,C1,C4H8OS,s-Ethyl thioacetate
458,C1,C3H8O2S,(Methylsulfonyl)ethane
459,C1,C5H10S,Cyclopentanethiol
460,C1,C5H10S,"Thiophene, tetrahydro-2-methyl-"
461,C1,C5H10S,"Thiophene, tetrahydro-3-methyl-"
462,C1,C4H10OS,Diethyl sulfoxide
463,C1,C5H12S,"1-Butanethiol, 2-methyl-"
464,C1,C5H12S,"2-Butanethiol, 3-methyl-"
465,C1,B2Cl4,Diboron tetrachloride
466,C1,C3H5ClO2,"Carbonochloridic acid, ethyl ester"
467,C1,C4H8Cl2,"Butane, 1,2-dichloro-"
468,C1,C4H8Cl2,"Butane, 1,3-dichloro-"
469,C1,C7H16,3-methylhexane
470,C1,C7H16,2-methylhexane
471,C1,C6H13N,cyclohexanamine
472,C1,C6H13N,2-Methylpiperidine
473,C1,C5H5NO,2(3H)-Pyridinone
474,C1,HO2CCHNH2CH2OH,Serine
475,C1,C6H12O,Oxepane
476,C1,CF3CHFCl,"1,1,1,2-tetrafluorochloroethane"
477,C1,CHCl2CClF2,"Ethane, 1,2,2-trichloro-1,1-difluoro-"
478,C1,C5H9NO2,Proline
479,C1,C6H12O2,Methyl pivalate
480,C1,CF2ClCFCl2,"Ethane, 1,1,2-trichloro-1,2,2-trifluoro-"
481,C1,CH3COC6H5,acetophenone
482,C2,C2H7+,"Ethane, protonated"
483,C2,N2H4,Hydrazine
484,C2,H2O2,Hydrogen peroxide
485,C2,H5O2+,Dihydroxonium ion
486,C2,P2H4,Diphosphine
487,C2,H2S2,Disulfane
488,C2,H2Se2,hydrogen diselenide
489,C2,CH3CHCH3+,Isopropyl cation
490,C2,HNCNH,diiminomethane
491,C2,HNNNH+,"1,2-Triazadienium"
492,C2,NH2CH2NH2,diaminomethane
493,C2,Be(OH)2,Beryllium hydroxide
494,C2,H2O3,Hydrogen trioxide
495,C2,CH2(OH)2,methanediol
496,C2,Mg(OH)2,Magnesium dihydroxide
497,C2,HSSSH,trisulfane
498,C2,HSCH2SH,Methanedithiol
499,C2,CH2CHCHCH2,"1,3-Butadiene"
500,C2,CH3CH2CH2CH3,Butane
501,C2,NH2CCNH2,Diaminoacetylene
502,C2,H2NCHCHNH2,diaminoethylene
503,C2,CH3NNCH3,"(Z)-1,2-Dimethyldiazene"
504,C2,C2H8N2,Ethylenediamine
505,C2,CH3NHNHCH3,dimethyl hydrazine
506,C2,ONNO,NO dimer
507,C2,NH2CONH2,Urea
508,C2,CH3COCH3,Acetone
509,C2,CH3OOCH3,dimethylperoxide
510,C2,FOOF,Perfluoroperoxide
511,C2,C2H4F2,"1,2-difluoroethane"
512,C2,FSSF,Difluorodisulfane
513,C2,NH2CSNH2,Thiourea
514,C2,CH3SSCH3,"Disulfide, dimethyl"
515,C2,ClOOCl,Dichlorine dioxide
516,C2,ClSSCl,Disulfur dichloride
517,C2,CH2ClCH2Cl,"Ethane, 1,2-dichloro-"
518,C2,CH2BrCH2Br,"Ethane, 1,2-dibromo-"
519,C2,C5H8,"1,4-Pentadiene"
520,C2,C5H8,"2,3-Pentadiene"
521,C2,HOCHCCHOH,allenediol
522,C2,C2H4O3,trioxolane124
523,C2,C3H6O2,"1,3-Dioxolane"
524,C2,C4H8O,"Furan, tetrahydro-"
525,C2,C3H8O2,"Methane, dimethoxy-"
526,C2,CH2FCH2CH2F,"1,3-difluoropropane"
527,C2,H2SO4,Sulfuric acid
528,C2,CH2CHSCHCH2,Divinyl sulfide
529,C2,CH3SSSCH3,dimethyl trisulfide
530,C2,CHClCCHCl,"1,3-dichloroallene"
531,C2,CH2ClCH2CH2Cl,"1,3-dichloropropane"
532,C2,H2SeO4,Selenic acid
533,C2,C6H8,"1,3-Cyclohexadiene"
534,C2,C6H10,cyclohexene
535,C2,C6H10,"1,5-Hexadiene"
536,C2,C6H10,3-Hexyne
537,C2,C6H12,Cyclohexane
538,C2,C6H12,(Z)-hex-3-ene
539,C2,C6H12,"(1R,2R)-1,2-dimethylcyclobutane"
540,C2,C4H4N2,Succinonitrile
541,C2,C2H4CO3,Ethylene carbonate
542,C2,C4H6O2,"2,3-Butanedione"
543,C2,C5H8O,Cyclopentanone
544,C2,NH(CH3)CONH(CH3),"Urea, N,N'-dimethyl-"
545,C2,CHF2CHF2,"1,1,2,2-tetrafluoroethane"
546,C2,C2H4N2S2,Ethanedithioamide
547,C2,CHFClCHFCl,"1,2-dichloro-1,2-difluoroethane RR"
548,C2,CHCl2CHCl2,"Ethane, 1,1,2,2-tetrachloro-"
549,C2,C4H8Cl2,"Butane, 2,3-dichloro-, (r*,r*)-(.+/-.)-"
550,C2,C7H14,cycloheptane
551,C2,N2O5,Dinitrogen pentoxide
552,C2,C5H8O2,Acetylacetone
553,C2,C3H7OC3H7,di-n-propyl ether
554,C2,C4H8O2S,Sulfolane
555,C2,CH3C6H4CH3,paraxylene
556,C2,(CH3)3CC(CH3)3,tetramethylbutane
557,C2,CF2ClCF2Cl,"1,2-Dichloro-1,1,2,2-tetrafluoroethane"
558,C2,C4F6,perfluorobutadiene
559,C2,C12H10,Heptalene
560,C2,C14H14,Bibenzyl
561,C2,C6H5COC6H5,benzophenone
562,C2h,HCCH-,acetylene anion
563,C2h,C2H4-,Ethylene anion
564,C2h,C2H6+,ethane cation
565,C2h,N2H2,(E)-diazene
566,C2h,N2H4+,hydrazine cation
567,C2h,NH3NH3,Ammonia Dimer
568,C2h,H2O2,Hydrogen peroxide
569,C2h,Si2H2,disilyne
570,C2h,Si2H4,Disilene
571,C2h,H2S2+,hydrogen disulfide cation
572,C2h,Mg(OH)2,Magnesium dihydroxide
573,C2h,CH2CHCHCH2,"1,3-Butadiene"
574,C2h,CH3CHCHCH3,"2-Butene, (E)-"
575,C2h,CH3CH2CH2CH3,Butane
576,C2h,HNCCNH,Ethenediimine
577,C2h,CH3NNCH3,"(E)-1,2-Dimethyldiazene"
578,C2h,C2H8N2,Ethylenediamine
579,C2h,ONNO,NO dimer
580,C2h,C2H2O2,Ethanedial
581,C2h,C2H6O2,"1,2-Ethanediol"
582,C2h,CH3OOCH3,dimethylperoxide
583,C2h,N2F2,"Dinitrogen difluoride, (E)-"
584,C2h,C2H2F2,"Ethene, 1,2-difluoro-, (E)-"
585,C2h,C2H4F2,"1,2-difluoroethane"
586,C2h,CH2SHCH2SH,"1,2-Ethanedithiol"
587,C2h,CHClCHCl,"Ethene, 1,2-dichloro-, (E)-"
588,C2h,CH2ClCH2Cl,"Ethane, 1,2-dichloro-"
589,C2h,CHBrCHBr,"Ethene, 1,2-dibromo-, (E)-"
590,C2h,CH2BrCH2Br,"Ethane, 1,2-dibromo-"
591,C2h,C6H4,"(E)-Hexa-1,5-diyne-3-ene"
592,C2h,C6H6,"Hexa-1,5-diene-3-yne"
593,C2h,C6H6,"1,2,4,5-Hexatetraene"
594,C2h,C6H8,"(E)-hexa-1,3,5-triene"
595,C2h,C6H8,"(E)-hexa-2,3,4-triene"
596,C2h,C6H10,"2,4-Hexadiene, (E,E)-"
597,C2h,C6H12,"(1r,3r)-1,3-dimethylcyclobutane"
598,C2h,C6H14,"Butane, 2,3-dimethyl-"
599,C2h,C6H14,Hexane
600,C2h,C4H2N2,Fumaronitrile
601,C2h,C4H4N2,Succinonitrile
602,C2h,C2H2O4,Oxalic Acid
603,C2h,C2H4N2O2,Oxalamide
604,C2h,C2H4O4,Formic acid dimer
605,C2h,C4H6O2,"2,3-Butanedione"
606,C2h,C2H6N2O2,(E)-Azodioxymethane
607,C2h,C4H8O2,"1,4-Dioxane"
608,C2h,C4H10O2,"1,4-Butanediol"
609,C2h,C4H10O2,"Ethane, 1,2-dimethoxy-"
610,C2h,CHF2CHF2,"1,1,2,2-tetrafluoroethane"
611,C2h,C2H4N2S2,Ethanedithioamide
612,C2h,C4H10S2,"1,4-Butanedithiol"
613,C2h,ClCOClCO,Oxalyl chloride
614,C2h,CFClCClF,"trans-1,2-dichloro-1,2-difluoroethylene"
615,C2h,CHCl2CHCl2,"Ethane, 1,1,2,2-tetrachloro-"
616,C2h,C4H8Cl2,"1,4-Dichlorobutane"
617,C2h,C8H6,Pentalene
618,C2h,CH3C6H4CH3,paraxylene
619,C2h,C8H18,Octane
620,C2h,C4F4,tetrafluorcyclobutadiene
621,C2h,CF2ClCF2Cl,"1,2-Dichloro-1,1,2,2-tetrafluoroethane"
622,C2h,C10H22,Decane
623,C2h,C4F6,perfluorobutadiene
624,C2h,C12H10N2,azobenzene
625,C2v,BH2,boron dihydride
626,C2v,BH3,boron trihydride
627,C2v,BH4,borohydride
628,C2v,CH2,Methylene
629,C2v,CH4+,Methane cation
630,C2v,CH2D2,methane-d2
631,C2v,NH2,Amino radical
632,C2v,ND2,Amidogen-d2
633,C2v,H2O,Water
634,C2v,D2O,Deuterium oxide
635,C2v,H2F+,dihydrogen fluoride cation
636,C2v,AlH2,aluminum dihydride
637,C2v,AlH3+,aluminum trihydride cation
638,C2v,SiH2,silicon dihydride
639,C2v,SiH4+,Silane cation
640,C2v,SiH2D2,silane-d2
641,C2v,PH2,Phosphino radical
642,C2v,H2S,Hydrogen sulfide
643,C2v,D2S,Hydrogen sulfide-d2
644,C2v,H2Cl+,dihydrogen monochloride cation
645,C2v,CaH2,Calcium Hydride
646,C2v,ZnH2,Zinc hydride
647,C2v,GeH2,germylene
648,C2v,AsH2,Arsenic dihydride
649,C2v,H2Se,Hydrogen selenide
650,C2v,H2Br+,protonated hydrogen bromide
651,C2v,H2Te,Hydrogen Telluride
652,C2v,H2I+,Iodonium
653,C2v,HBHHBH,Diborane(4) C2V
654,C2v,CCH2,vinylidene
655,C2v,CH2BH,methyleneborane
656,C2v,C2H3+,vinyl cation
657,C2v,C2H5+,Ethyl cation
658,C2v,LiNH2,lithium amide
659,C2v,H2CN,Dihydrogen cyanide radical
660,C2v,CNH2,Aminomethylidyne radical
661,C2v,N2H2,(Z)-Diazene
662,C2v,H2NN,Isodiazene
663,C2v,BH2NH2,Boranamine
664,C2v,CH2NH2+,methyleneamine cation
665,C2v,H2CO,Formaldehyde
666,C2v,H2NO,nitroxide
667,C2v,H2O2+,Hydrogen peroxide cation
668,C2v,CH2F+,fluoromethyl cation
669,C2v,Si2H2,disilyne
670,C2v,CH2SiH2,silaethylene
671,C2v,Si2H4,Disilene
672,C2v,H2CS,Thioformaldehyde
673,C2v,CH2Cl+,chloromethyl cation
674,C2v,ZnCH2,Zinc methylene
675,C2v,H2CSe,Selenoformaldehyde
676,C2v,CH2Cl,chloromethyl radical
677,C2v,Li3,Lithium trimer
678,C2v,C3,carbon trimer
679,C2v,C3H3,Propargyl radical
680,C2v,C3H4,cyclopropene
681,C2v,C3H5,Allyl radical
682,C2v,C3H8,Propane
683,C2v,CN2,3H-Diazirin-3-ylidene
684,C2v,CH2N2,diazirine
685,C2v,CH2NN,diazomethane
686,C2v,NH2CN,cyanamide
687,C2v,NH2CNH+,"cyanamide, cn protonated"
688,C2v,NH2BHNH2,diaminoborane
689,C2v,C2H5NH+,Protonated Aziridine
690,C2v,C2H6N+,"aziridine, protonated"
691,C2v,NH2CH2NH2,diaminomethane
692,C2v,(CH3)2NH2+,dimethylammonium cation
693,C2v,LiO2,Lithium dioxide
694,C2v,CO2-,Carbon dioxide anion
695,C2v,NO2,Nitrogen dioxide
696,C2v,O3,Ozone
697,C2v,HCO2-,formate anion
698,C2v,C2H2O,Oxirene
699,C2v,CH2CO,Ketene
700,C2v,Be(OH)2,Beryllium hydroxide
701,C2v,CH2O2,Dioxirane
702,C2v,C2H4O,Ethylene oxide
703,C2v,H2COCH2+,"Methyl, (methyleneoxoniumyl)-"
704,C2v,CH3OCH3,Dimethyl ether
705,C2v,BF2,Boron difluoride radical
706,C2v,CF2,Difluoromethylene
707,C2v,NF2,Difluoroamino radical
708,C2v,F2O,Difluorine monoxide
709,C2v,BHF2,Difluoroborane
710,C2v,CHF2+,difluoromethyl cation
711,C2v,CH2F2,"Methane, difluoro-"
712,C2v,NaO2,Sodium superoxide
713,C2v,Na2O,disodium monoxide
714,C2v,SiC2,Silicon dicarbide
715,C2v,SiF2,Silicon difluoride
716,C2v,SiH2F2,difluorosilane
717,C2v,SiH2(CH3)2,dimethylsilane
718,C2v,Si3H8,trisilane
719,C2v,PO2,Phosphorus dioxide
720,C2v,PF2,Phosphorus difluoride
721,C2v,Li2S,dilithium sulfide
722,C2v,SO2,Sulfur dioxide
723,C2v,SF2,sulfur difluoride
724,C2v,CS2-,Carbon disulfide anion
725,C2v,S3,Sulfur trimer
726,C2v,CH2CS,Thioketene
727,C2v,C2H4S,Thiirane
728,C2v,CH3SCH3,Dimethyl sulfide
729,C2v,OClO,Chlorine dioxide
730,C2v,CCl2,dichloromethylene
731,C2v,Cl2O,Dichlorine monoxide
732,C2v,SiCl2,Dichlorosilylene
733,C2v,SCl2,Sulfur dichloride
734,C2v,BHCl2,"Borane, dichloro-"
735,C2v,CHCl2+,dichloromethyl cation
736,C2v,CH2Cl2,Methylene chloride
737,C2v,SiH2Cl2,dichlorosilane
738,C2v,CaF2,Calcium difluoride
739,C2v,TiO2,Titanium dioxide
740,C2v,CuF2,Copper difluoride
741,C2v,ZnF2,Zinc difluoride
742,C2v,ZnCl2,Zinc dichloride
743,C2v,Zn(CH3)2,dimethyl zinc
744,C2v,GeF2,Germanium difluoride
745,C2v,GeCl2,Germanium dichloride
746,C2v,AsO2,Aresenic dioxide
747,C2v,SeO2,Selenium dioxide
748,C2v,SeF2,Selenium difluoride
749,C2v,SeCl2,Selenium Dichloride
750,C2v,CH3SeCH3,dimethylselenide
751,C2v,OBrO,Bromine dioxide radical
752,C2v,CBr2,dibromomethylene
753,C2v,BrOBr,Bromine oxide
754,C2v,SBr2,Sulfur dibromide
755,C2v,SeBr2,Selenium dibromide
756,C2v,CH2Br2,dibromomethane
757,C2v,TeO2,Tellurium Dioxide
758,C2v,CH2I2,Diiodomethane
759,C2v,B4H10,Tetraborane(10)
760,C2v,C4H6,Bicyclo[1.1.0]butane
761,C2v,C4H6,Cyclobutene
762,C2v,C4H6,Methylenecyclopropane
763,C2v,CH2C(CH3)CH3,"1-Propene, 2-methyl-"
764,C2v,CH3CHCHCH3,"2-Butene, (Z)-"
765,C2v,CH3NNCH3,"(Z)-1,2-Dimethyldiazene"
766,C2v,CO3,Carbon trioxide
767,C2v,ONNO,NO dimer
768,C2v,NO3,Nitrogen trioxide
769,C2v,NH2NO2,nitramide
770,C2v,C2H2CO,cyclopropenone
771,C2v,C3H2O,Propadienal
772,C2v,C2H2O2,Ethanedial
773,C2v,H2CO3,Carbonic acid
774,C2v,H2NO3+,"Nitric Acid, Protonated"
775,C2v,C3H4O,Cyclopropanone
776,C2v,NH2CONH2,Urea
777,C2v,C2H4O2,"1,3-dioxetane"
778,C2v,CH3COCH3,Acetone
779,C2v,C3H6O,Oxetane
780,C2v,CF2O,Carbonic difluoride
781,C2v,BF3+,boron trifluoride cation
782,C2v,FNO2,Nitryl fluoride
783,C2v,N2F2,(Z)-Difluorodiazene
784,C2v,CH2CF2,"Ethene, 1,1-difluoro-"
785,C2v,C2H2F2,"Ethene, 1,2-difluoro-, (Z)-"
786,C2v,SF3,Sulfur trifluoride
787,C2v,S4,Sulfur tetramer
788,C2v,H2CS3,thiocarbonic acid
789,C2v,CH3CSCH3,Thioacetone
790,C2v,ClNO2,Nitryl chloride
791,C2v,BClF2,Chlorodifluoroborane
792,C2v,ClF3,Chlorine trifluoride
793,C2v,CCl2O,Phosgene
794,C2v,AlF2Cl,Aluminum chloride difluoride
795,C2v,Cl2CS,Thiophosgene
796,C2v,AlFCl2,Aluminum dichloride fluoride
797,C2v,CH2CCl2,"Ethene, 1,1-dichloro-"
798,C2v,CHClCHCl,"Ethene, 1,2-dichloro-, (Z)-"
799,C2v,SeO3,selenium trioxide
800,C2v,BrF3,Bromine trifluoride
801,C2v,COBr2,Carbonic dibromide
802,C2v,CHBrCHBr,"Ethene, 1,2-dibromo-, (Z)-"
803,C2v,C2H2Br2,"1,1-dibromoethene"
804,C2v,IF3,iodone trifluoride
805,C2v,C5H5,cyclopentadienyl radical
806,C2v,C5H6,"1,3-Cyclopentadiene"
807,C2v,C5H7,cyclopentenyl radical
808,C2v,C5H7,"1,3-pentadienyl radical"
809,C2v,C5H8,"1,2-Butadiene, 3-methyl-"
810,C2v,C5H10,"Cyclopropane, 1,1-dimethyl-"
811,C2v,C5H12,Pentane
812,C2v,C3H2N2,Malononitrile
813,C2v,C3H3N2,imidazolyl radical
814,C2v,C4H4N,pyrrolide radical
815,C2v,C3H4N2,2H-Imidazole
816,C2v,C4H5N,Pyrrole
817,C2v,C4H6N+,"pyrrole, protonated"
818,C2v,C3O2,Carbon suboxide
819,C2v,B2O3,diboron trioxide
820,C2v,BeCO3,Beryllium Carbonate
821,C2v,ONONO,Nitrosyl nitrite
822,C2v,C2H2N2O,Furazan
823,C2v,CHOOCHO,diformyl ether
824,C2v,C4H4O,Furan
825,C2v,CH2CHOCHCH2,Vinyl ether
826,C2v,C4H6O,Cyclobutanone
827,C2v,C4H6O,"Furan, 2,5-dihydro-"
828,C2v,C3H8O2,"Methane, dimethoxy-"
829,C2v,C4H10O,Ethoxy ethane
830,C2v,CH3CF2CH3,"2,2-difluoropropane"
831,C2v,MgCO3,Magnesium Carbonate
832,C2v,SO2F2,Sulfuryl fluoride
833,C2v,SF4,Sulfur tetrafluoride
834,C2v,C2H2N2S,"1,3,4-Thiadiazole"
835,C2v,C4H4S,Thiophene
836,C2v,C4H6S,"Thiophene, 2,5-dihydro-"
837,C2v,C2H6O2S,Dimethyl sulfone
838,C2v,C3H8S2,"1,3-Propanedithiol"
839,C2v,C2H5SC2H5,Diethyl sulfide
840,C2v,CF2Cl2,difluorodichloromethane
841,C2v,SO2Cl2,Sulfuryl chloride
842,C2v,CCl4+,Carbon tetrachloride cation
843,C2v,SCl4,Sulfur tetrachloride
844,C2v,CH2ClCH2CH2Cl,"1,3-dichloropropane"
845,C2v,CH3CCl2CH3,"Propane, 2,2-dichloro-"
846,C2v,SiCl2(CH3)2,dichlorodimethylsilane
847,C2v,CaCO3,Calcium Carbonate
848,C2v,SeF4,Selenium tetrafluoride
849,C2v,C4H4Se,selenophene
850,C2v,CBr2F2,"Methane, dibromodifluoro-"
851,C2v,CBr2Cl2,dibromodichloromethane
852,C2v,CF2I2,difluorodiiodomethane
853,C2v,CCl2I2,dichlorodiiodomethane
854,C2v,C6H4,Benzyne
855,C2v,C6H4,"(Z)-Hexa-1,5-diyne-3-ene"
856,C2v,C6H5,phenyl
857,C2v,C6H6,Fulvene
858,C2v,C6H6,Benzvalene
859,C2v,C6H6,"3,4-Dimethylenecyclobutene"
860,C2v,C6H6,Dewar Benzene
861,C2v,C6H7+,"benzene, protonated"
862,C2v,C6H8,Bicyclo[2.1.1]hex-2-ene
863,C2v,C6H8,"(Z)-hexa-1,3,5-triene"
864,C2v,C6H8,"(Z)-hexa-2,3,4-triene"
865,C2v,C6H10,3-Hexyne
866,C2v,C6H12,"cis-1,3-dimethylcyclobutane"
867,C2v,C4H6(CH3)2,"1,1-dimethylcyclobutane"
868,C2v,C4H4N2,Pyridazine
869,C2v,C4H4N2,"1,3-Diazine"
870,C2v,C5H5N,Pyridine
871,C2v,C5H6N+,Pyridinium
872,C2v,Li2CO3,Lithium Carbonate
873,C2v,C3H2O3,vinylene carbonate
874,C2v,C2H4CO3,Ethylene carbonate
875,C2v,C4H8O2,"Ethene, 1,1-dimethoxy-"
876,C2v,C5H10O,3-Pentanone
877,C2v,Na2CO3,Sodium Carbonate
878,C2v,MgSO4,Magnesium Sulfate
879,C2v,CF2CCl2,difluorodichloroethylene
880,C2v,CFClCFCl,"cis-1,2-dichloro-1,2-difluoroethylene"
881,C2v,SOF4,Sulfur tetrafluoride oxide
882,C2v,C6H5CH2,benzyl radical
883,C2v,C7H7,cycloheptatrienyl radical
884,C2v,C7H8,Norbornadiene
885,C2v,C7H8,Quadricyclane
886,C2v,C7H12,Norbornane
887,C2v,C7H16,heptane
888,C2v,C4H2O3,Maleic Anhydride
889,C2v,C5H4O2,"4-Cyclopentene-1,3-dione"
890,C2v,C6H5O,phenoxy radical
891,C2v,C5H5NO,4(1H)-Pryidinone
892,C2v,C6H6O,"2,5-Cyclohexadienone"
893,C2v,C3H7OC3H7,di-n-propyl ether
894,C2v,C6H5F,Fluorobenzene
895,C2v,PF6,Hexafluorophosphate neutral
896,C2v,C6H5Cl,chlorobenzene
897,C2v,C6H5Br,bromobenzene
898,C2v,C6H5CCH,phenylacetylene
899,C2v,C8H6,benzocyclobutadiene
900,C2v,C8H6,Calicene
901,C2v,CH3C6H4CH3,paraxylene
902,C2v,C6H5CN,phenyl cyanide
903,C2v,C6H4F2,orthodifluorobenzene
904,C2v,C6H4F2,metadifluorobenzene
905,C2v,C6H4Cl2,"1,2-dichlorobenzene"
906,C2v,C6H4Cl2,"1,3-dichlorobenzene"
907,C2v,C9H20,Nonane
908,C2v,C6H5NO2,Nitrobenzene
909,C2v,C6H3F3,Benzene trifluoride 123
910,C2v,C10H8,Azulene
911,C2v,C3F8,perfluoropropane
912,C2v,C12H8,Acenaphthylene
913,C2v,C13H10,Fluorene
914,C2v,C14H10,Phenanthrene
915,C2v,C6H5COC6H5,benzophenone
916,C3,CH7N3,triaminomethane
917,C3,H3PO4,Phosphoric Acid
918,C3,C6H15N,triethylamine
919,C3,C19H16,Triphenylmethane
920,C3h,B(CH3)3,trimethylborane
921,C3h,H3BO3,Boric acid
922,C3h,H3CO3+,"carbonic acid, protonated"
923,C3h,H3AlO3,Aluminum hydroxide
924,C3h,Al(CH3)3,trimethyl aluminum
925,C3h,N(SiH3)3,trisilylamine
926,C3v,BH3-,boron trihydride anion
927,C3v,CH3-,methyl anion
928,C3v,CH4-,Methane anion
929,C3v,CH3D,methane-d
930,C3v,CHD3,methane-d3
931,C3v,NH3,Ammonia
932,C3v,ND3,Ammonia-d3
933,C3v,H3O+,hydronium cation
934,C3v,AlH3-,aluminum trihydride anion
935,C3v,SiH3,Silyl radical
936,C3v,PH3,Phosphine
937,C3v,H3S+,Sulfonium cation
938,C3v,ScH3,Scandium trihydride
939,C3v,GeH3,Germyl radical
940,C3v,AsH3,Arsine
941,C3v,H3Se+,"Hydrogen Selenide, protonated"
942,C3v,SbH3,Stibine
943,C3v,LiBH4,Lithium borohydride
944,C3v,CH3Li,methyl lithium
945,C3v,BH3NH3,borane ammonia
946,C3v,CH3NH3,methyl ammonium radical
947,C3v,N2H7+,ammonia ammonium dimer
948,C3v,CH3O-,methoxy anion
949,C3v,NH3O,Ammonia Oxide
950,C3v,CD3F,methylfluoride-d3
951,C3v,CH3F,Methyl fluoride
952,C3v,SiH3F,monofluorosilane
953,C3v,CH3SiH3,methyl silane
954,C3v,H3PO,Phosphine oxide
955,C3v,BH3PH3,borane phosphine
956,C3v,CH3PH3+,"methyl phosphine, protonated"
957,C3v,CH3S,thiomethoxy
958,C3v,NH3S,sulfidoazane
959,C3v,CH3Cl,Methyl chloride
960,C3v,CD3Cl,methyl chloride d3
961,C3v,NH3Cl+,protonated monochloroammonia
962,C3v,SiH3Cl,chlorosilane
963,C3v,NH4Cl,Ammonium chloride
964,C3v,CuCH3,monomethyl copper
965,C3v,ZnCH3,Zinc monomethyl
966,C3v,GeH3F,monofluorogermane
967,C3v,GeH3Cl,monochlorogermane
968,C3v,GeH3CH3,methyl germane
969,C3v,CH3Br,methyl bromide
970,C3v,SiH3Br,bromosilane
971,C3v,CH3I,methyl iodide
972,C3v,SiH3I,Silyl Iodide
973,C3v,CH3CCH,propyne
974,C3v,CH3CN,Acetonitrile
975,C3v,CH3NC,methyl isocyanide
976,C3v,NCNH3+,"Cyanamide, protonated"
977,C3v,NH3CN+,"cyanamide, amine protonated"
978,C3v,BH3CO,Borane carbonyl
979,C3v,CH3BO,"Borane, methyloxo-"
980,C3v,CH3CO+,acetyl cation
981,C3v,NaOCH3,Sodium methoxide
982,C3v,CH3MgBr,Methyl Magnesium Bromide
983,C3v,C(CH3)3,Tert-butyl radical
984,C3v,CH3CH(CH3)CH3,Isobutane
985,C3v,Li3N,trilithium nitride
986,C3v,N(CH3)3,Trimethylamine
987,C3v,(CH3)3NH+,protonated trimethyl amine
988,C3v,C3H9O+,trimethyl oxonium cation
989,C3v,BF3-,"Borane, trifluoro- anion"
990,C3v,CF3,Trifluoromethyl radical
991,C3v,NF3,Nitrogen trifluoride
992,C3v,CHF3,"Methane, trifluoro-"
993,C3v,NF3H+,protonated nitrogen trifluoride
994,C3v,SiF3,Silicon trifluoride radical
995,C3v,SiHF3,trifluorosilane
996,C3v,SiH(CH3)3,trimethylsilane
997,C3v,PF3,Phosphorus trifluoride
998,C3v,P(CH3)3,trimethylphosphine
999,C3v,SO3--,Sulfate dianion
1000,C3v,ClO3,Chlorine trioxide
1001,C3v,ClO3-,chlorate anion
1002,C3v,CCl3,Trichloromethyl radical
1003,C3v,NCl3,nitrogen trichloride
1004,C3v,SiCl3,trichlorosilyl radical
1005,C3v,PCl3,Phosphorus trichloride
1006,C3v,CHCl3,Chloroform
1007,C3v,CDCl3,trichloromethane-d
1008,C3v,SiHCl3,Trichlorosilane
1009,C3v,AsF3,Arsenic trifluoride
1010,C3v,AsCl3,Arsenous trichloride
1011,C3v,AsF3H+,"Arsenic trifluoride, protonated"
1012,C3v,As(CH3)3,trimethyl arsine
1013,C3v,BrO3-,Bromate anion
1014,C3v,CBr3,tribromomethyl radical
1015,C3v,NBr3,Nitrogen Tribromide
1016,C3v,PBr3,Phosphorus tribromide
1017,C3v,AsBr3,Arsenic tribromide
1018,C3v,CHBr3,bromoform
1019,C3v,SbF3,Antimony Trifluoride
1020,C3v,SbCl3,Antimony Trichloride
1021,C3v,NI3,Nitrogen triiodide
1022,C3v,PI3,Phosphorus triiodide
1023,C3v,CHI3,Iodoform
1024,C3v,F3NO,Nitrogen trifluoride oxide
1025,C3v,CH3CF3,"Ethane, 1,1,1-trifluoro-"
1026,C3v,NH3BF3,Amminetrifluoroboron
1027,C3v,SiH3CCl3,(trichloromethyl)silane
1028,C3v,F3PO,Phosphoryl fluoride
1029,C3v,CF3Cl,"Methane, chlorotrifluoro-"
1030,C3v,ClFO3,Perchloryl fluoride
1031,C3v,CFCl3,Trichloromonofluoromethane
1032,C3v,Cl3PO,Phosphoryl chloride
1033,C3v,CH3CCl3,"Ethane, 1,1,1-trichloro-"
1034,C3v,NH3BCl3,Amminetrichloroboron
1035,C3v,SiCl3CH3,methyltrichlorosilane
1036,C3v,CH3CCl(CH3)CH3,"Propane, 2-chloro-2-methyl-"
1037,C3v,CF3Br,Bromotrifluoromethane
1038,C3v,CBrCl3,"Methane, bromotrichloro-"
1039,C3v,CFBr3,fluorotribromomethane
1040,C3v,CBr3Cl,tribromochloromethane
1041,C3v,CH3CBr3,"1,1,1-tribromoethane"
1042,C3v,CF3I,trifluoroiodomethane
1043,C3v,CCl3I,trichloroiodomethane
1044,C3v,CBr3I,tribromoiododmethane
1045,C3v,C6H10,"1-Butyne, 3,3-dimethyl-"
1046,C3v,C5H9N,"Propanenitrile, 2,2-dimethyl-"
1047,C3v,C3H6O3,"1,3,5-Trioxane"
1048,C3v,CF3CN,"Acetonitrile, trifluoro-"
1049,C3v,C3H6S3,"1,3,5-Trithiane"
1050,C3v,CH(C2H3)3,trivinyl methane
1051,C3v,CH(CN)3,tricyanomethane
1052,C3v,CF3CCl3,"1,1,1-trifluoro-2,2,2-trichloroethane"
1053,C3v,C10H10,bullvalene
1054,C4v,B5H9,pentaborane9
1055,C4v,SF5,Sulfur pentafluoride
1056,C4v,ClF5,chlorinepentafluoride
1057,C4v,BrF5,bromine pentafluoride
1058,C4v,IF5,pentafluoroiodine
1059,C4v,SF5Cl,sulfur chloropentafluoride
1060,C4v,Fe(CO)5,Iron pentacarbonyl
1061,Ci,C2H6+,ethane cation
1062,Ci,H2NCHCHNH2,diaminoethylene
1063,Ci,C6H12,(E)-hex-3-ene
1064,Ci,C4H6O2,"2,3-Butanedione"
1065,Ci,C2H6N2O2,(E)-Azodioxymethane
1066,Ci,CHFClCHClF,"ethane, 1,2-dichloro-1,2-difluoro-"
1067,Ci,C4H8Cl2,"Butane, 2,3-dichloro-, (r*,s*)-"
1068,Cs,H2O-,water anion
1069,Cs,HDO,Water-d1
1070,Cs,SiH5+,"Silane, protonated"
1071,Cs,H2S-,Hydrogen sulfide anion
1072,Cs,B2H6+,Diborane cation
1073,Cs,C2H,Ethynyl radical
1074,Cs,HCCH-,acetylene anion
1075,Cs,C2H3,vinyl
1076,Cs,CH3CH,methylmethylene
1077,Cs,CH3BH2,methylborane
1078,Cs,C2H5,Ethyl radical
1079,Cs,HCN-,Hydrogen cyanide anion
1080,Cs,NNH,Dinitrogen monohydride
1081,Cs,HCNH,methyleneazane
1082,Cs,CH2NH,Methanimine
1083,Cs,CHNH2,aminomethylene
1084,Cs,CH3NH2,methyl amine
1085,Cs,N2H5+,protonated hydrazine
1086,Cs,NH3NH3,Ammonia Dimer
1087,Cs,BeOH,beryllium monohydroxide
1088,Cs,HCO,Formyl radical
1089,Cs,COH,Hydroxymethylidyne
1090,Cs,HNO,Nitrosyl hydride
1091,Cs,NOH,Hydroxyimidogen
1092,Cs,HO2,Hydroperoxy radical
1093,Cs,H2CO-,formaldehyde anion
1094,Cs,HOCH,hydroxycarbene
1095,Cs,H2NO,nitroxide
1096,Cs,H2OO,water oxide
1097,Cs,CH2OH+,hydroxymethyl cation
1098,Cs,NH2OH,hydroxylamine
1099,Cs,H3O2+,"hydrogen peroxide, protonated"
1100,Cs,CH3OH,Methyl alcohol
1101,Cs,NH3OH+,N-protonated hydroxylamine
1102,Cs,H2OH2O,water dimer
1103,Cs,CH3OH2+,"Methanol, protonated"
1104,Cs,H2ONH3,Water Ammonia Dimer
1105,Cs,HCF,Fluoromethylene
1106,Cs,HOF,Hypofluorous acid
1107,Cs,F2H+,"Fluorine, protonated"
1108,Cs,CH2F,fluoromethyl radical
1109,Cs,NH2F,monofluoroamine
1110,Cs,H2F2,Hydrogen fluoride dimer
1111,Cs,CH3F+,methyl fluoride cation
1112,Cs,HSiF,fluorosilylene
1113,Cs,SiH3OH,silanol
1114,Cs,SiH3NH2,"Silane, amino"
1115,Cs,HPO,Hydrogen phosphorus oxide
1116,Cs,CH2PH,Phosphaethene
1117,Cs,H2POH,Phosphinous acid
1118,Cs,CH3PH2,Methyl phosphine
1119,Cs,HCS,Thioformyl radical
1120,Cs,HNS,Sulfur imide
1121,Cs,HSO+,"Sulfur Monoxide, S-protonated"
1122,Cs,SOH,Sulfur Hydroxide
1123,Cs,HS2,Thiosulfeno radical
1124,Cs,H2CS-,thioformaldehyde anion
1125,Cs,H2CSH+,"Thioformaldehyde, protonated"
1126,Cs,NH2SH,Thiohydroxylamine
1127,Cs,CH3SH,Methanethiol
1128,Cs,CH3SH2+,protonated methylsulfide
1129,Cs,HCCl,Chloromethylene
1130,Cs,HOCl,hypochlorous acid
1131,Cs,DOCl,Hypochlorous acid-d
1132,Cs,ClFH+,"Chlorine fluoride, F-protonated"
1133,Cs,FClH+,"Chlorine fluoride, Cl-protonated"
1134,Cs,HSiCl,Chlorosilylene
1135,Cs,Cl2H+,"Chlorine, protonated"
1136,Cs,NH2Cl,chloramine
1137,Cs,CH3ClH+,"methyl chloride, protonated"
1138,Cs,ZnCH2,Zinc methylene
1139,Cs,CH3SeH,Methane selenol
1140,Cs,CHBr,bromomethylene
1141,Cs,HOBr,Hypobromous acid
1142,Cs,HSiBr,monobromosilylene
1143,Cs,CH2Cl,chloromethyl radical
1144,Cs,CH2Br,bromomethyl radical
1145,Cs,HOI,Hypoiodous acid
1146,Cs,C3H3-,Propargyl anion
1147,Cs,C3H3,cyclopropenyl radical
1148,Cs,C3H5,Allyl radical
1149,Cs,CH3CHCH,1-propenyl radical
1150,Cs,CH2CHCH3,Propene
1151,Cs,CH3CHCH3,Isopropyl radical
1152,Cs,C3H7+,"cyclopropane, protonated"
1153,Cs,LiCN,lithium cyanide
1154,Cs,HCCN,cyanomethylene
1155,Cs,HCNN,diazomethyl radical
1156,Cs,HN3,hydrogen azide
1157,Cs,NH2CN,cyanamide
1158,Cs,NH2NN+,"hydrazoic acid, protonated"
1159,Cs,CH3CN-,acetonitrile anion
1160,Cs,CHNCH2,2H-Azirine
1161,Cs,CHNHCH,1H-Azirine
1162,Cs,H2CCNH,Ethenimine
1163,Cs,HCCNH2,Ethynamine
1164,Cs,H2CNCH,methyleneaminomethylene
1165,Cs,HNCNH2+,"diiminomethane, protonated"
1166,Cs,CH3CHN,methylmethaniminyl radical
1167,Cs,CH2CHNH,vinylazine
1168,Cs,C2H5N,Aziridine
1169,Cs,CH2NCH3,N-methylmethanimine
1170,Cs,CH3CHNH,ethanimine
1171,Cs,CH3CH2NH2,Ethylamine
1172,Cs,CH3NHCH3,Dimethylamine
1173,Cs,NH2CH2NH3+,"diaminoethane, protonated"
1174,Cs,CH3CH2NH3+,"ethylamine, protonated"
1175,Cs,N2O-,Nitrous oxide anion
1176,Cs,O3-,Ozone anion
1177,Cs,HCCO,ketenyl radical
1178,Cs,HNCO,Isocyanic acid
1179,Cs,HOCN,cyanic acid
1180,Cs,HCNO,fulminic acid
1181,Cs,HOCO,Hydrocarboxyl radical
1182,Cs,HCOO,formate neutral radical
1183,Cs,NNOH+,"Nitrous Oxide, O-protonated"
1184,Cs,HNNO,nitrosoazane
1185,Cs,HNO2,Nitrous acid
1186,Cs,O3H+,protonated ozone
1187,Cs,HCCOH,ethynol
1188,Cs,HCOOH,Formic acid
1189,Cs,H2COO,Dioxymethyl radical
1190,Cs,CH2BOH,hydroxy(methylene)borane
1191,Cs,CH3CO,Acetyl radical
1192,Cs,CH2CHO,Vinyloxy radical
1193,Cs,CH2COH+,"ketene, protonated"
1194,Cs,CHONH2,formamide
1195,Cs,CH2NOH,formaldoxime
1196,Cs,CH3NO,nitrosomethane
1197,Cs,HOCHNH,hydroxymethylimine
1198,Cs,CH3OO,methylperoxy radical
1199,Cs,CH3CHO,Acetaldehyde
1200,Cs,CH2CHOH,ethenol
1201,Cs,H2CONH2+,protonated formamide
1202,Cs,NH2CHOH+,"Formamide, O-protonated"
1203,Cs,CH3CH2O,Ethoxy radical
1204,Cs,CH3CHOH+,"acetaldehyde, protonated"
1205,Cs,CH2CH2OH,2-hydroxy ethyl radical
1206,Cs,C2H4OH+,"ethylene oxide, protonated"
1207,Cs,CH3CH2OH,Ethanol
1208,Cs,CH3OHH2O,methanol water dimer
1209,Cs,FCO,Carbonyl fluoride
1210,Cs,FNO,Nitrosyl fluoride
1211,Cs,FOO,Dioxygen monofluoride radical
1212,Cs,HFCO,formyl fluoride
1213,Cs,CHF2,difluoromethyl radical
1214,Cs,NHF2,difluoramine
1215,Cs,CH2CHF,"Ethene, fluoro-"
1216,Cs,C2H5F,fluoroethane
1217,Cs,NaCN,Sodium Cyanide
1218,Cs,CH3SiFH2,fluoromethylsilane
1219,Cs,CH3PHCH3,dimethylphosphine
1220,Cs,SNO,Nitrogen oxide sulfide
1221,Cs,NSO,sulfinyl amidogen
1222,Cs,FNS,Thionitrosyl fluoride
1223,Cs,FSN,Thiazyl fluoride
1224,Cs,SF2-,sulfur difluoride anion
1225,Cs,SSO,Disulfur monoxide
1226,Cs,CS2H+,"Carbon disulfide, protonated"
1227,Cs,HSCN,thiocyanic acid
1228,Cs,HNCS,Isothiocyanic acid
1229,Cs,SO2H+,protonated sulfur dioxide
1230,Cs,HSSSH,trisulfane
1231,Cs,CHSNH2,thioformamide
1232,Cs,NHCHSH,Methanimidothioic acid
1233,Cs,CH2CHSH,Ethenethiol
1234,Cs,CH3CHS,Thioacetaldehyde
1235,Cs,CH3CH2SH,ethanethiol
1236,Cs,SFCl,Sulfur chloride fluoride
1237,Cs,FClO,chlorosyl fluoride
1238,Cs,ClCO,carbonyl monochloride
1239,Cs,CFCl,chlorofluoromethylene
1240,Cs,ClNO,Nitrosyl chloride
1241,Cs,ClOO,chloroperoxy radical
1242,Cs,ClOF,Chlorine hypofluorite
1243,Cs,OPCl,Phosphorus oxychloride
1244,Cs,ClSO,Sulfur chloride oxide
1245,Cs,ClS2,Sulfur chloride
1246,Cs,COHCl,Formyl chloride
1247,Cs,CHFCl+,Chlorofluoromethyl cation
1248,Cs,HOClO,Chlorous acid
1249,Cs,NHCl2,dichloroamine
1250,Cs,CHCl2,dichloromethyl radical
1251,Cs,CH2FCl,fluorochloromethane
1252,Cs,C2H3Cl,"Ethene, chloro-"
1253,Cs,CH3OCl,methyl hypochlorite
1254,Cs,CH2CH2Cl,2-chloroethyl radical
1255,Cs,CH3CH2Cl,Ethyl chloride
1256,Cs,KCN,Potassium cyanide
1257,Cs,CuCN,Copper cyanide
1258,Cs,ZnCN,Zinc monocyanide
1259,Cs,BrNO,Nitrosyl bromide
1260,Cs,BrOO,Bromine dioxide
1261,Cs,BrOCl,Bromine hypochlorite
1262,Cs,COHBr,Formyl bromide
1263,Cs,CHBr2,dibromomethyl radical
1264,Cs,CH2BrF,"Methane, bromofluoro-"
1265,Cs,CH2BrCl,"Methane, bromochloro-"
1266,Cs,C2H3Br,vinyl bromide
1267,Cs,C2H5Br,Ethyl bromide
1268,Cs,INO,Nitrosyl iodide
1269,Cs,CH2FI,fluoroiodomethane
1270,Cs,CH2ClI,chloroiodomethane
1271,Cs,CH2BrI,bromoiodomethane
1272,Cs,C2H3I,Vinyl iodide
1273,Cs,C2H5I,Ethyl iodide
1274,Cs,C2H3CCH,1-Buten-3-yne
1275,Cs,CHCCH2CH3,1-Butyne
1276,Cs,CH2CCHCH3,"1,2-Butadiene"
1277,Cs,CH3CHCHCH2,methylallyl radical
1278,Cs,C4H8,methylcyclopropane
1279,Cs,CH2CH(CH3)2,Isobutyl radical
1280,Cs,H2CNCN,"cyanamide, methylene"
1281,Cs,C3H3N,acrylonitrile
1282,Cs,CH3N3,methyl azide
1283,Cs,NH2CH2CN,Aminoacetonitrile
1284,Cs,C2H5CN,ethyl cyanide
1285,Cs,C3H7N,Cyclopropylamine
1286,Cs,C3H7N,Azetidine
1287,Cs,CH3CH(NH2)CH3,2-Propanamine
1288,Cs,NH2CH2CH2CH3,1-Propanamine
1289,Cs,C3H7NH3+,"n-propylamine, protonated"
1290,Cs,C3O,Tricarbon monoxide
1291,Cs,HCO3-,bicarbonate anion
1292,Cs,HNO3,Nitric acid
1293,Cs,NH2NO2,nitramide
1294,Cs,HCCCHO,2-propynal
1295,Cs,C3H2O,Propadienal
1296,Cs,CH3NCO,methylisocyante
1297,Cs,C2H3NO,Nitrosoethylene
1298,Cs,CH3COO-,acetate anion
1299,Cs,CH3NO2,"Methane, nitro-"
1300,Cs,NH2COOH,Carbamic acid
1301,Cs,CH3ONO,Methyl nitrite
1302,Cs,CH2CHCHO,Acrolein
1303,Cs,C3H4O,2-Propyn-1-ol
1304,Cs,C3H4O,Methylketene
1305,Cs,C3H4O,allenol
1306,Cs,NH2CONH2,Urea
1307,Cs,CH3COOH,Acetic acid
1308,Cs,CH3OCHO,methyl formate
1309,Cs,CHOCH2OH,hydroxy acetaldehyde
1310,Cs,NH3COOH+,protonated Carbamic acid
1311,Cs,NH2COOH2+,"Carbamic acid, O-protonated"
1312,Cs,CH3COCH2,Acetonyl radical
1313,Cs,CH3CHNOH,Acetaldoxime
1314,Cs,HCONHCH3,N-methylformamide
1315,Cs,CH3C(OH)=NH,Ethaninidic acid
1316,Cs,C2H5OO,ethylperoxy radical
1317,Cs,CH5N2O+,"urea, N-protonated"
1318,Cs,H2NCOHNH2+,"urea, protonated"
1319,Cs,CH3COCH3,Acetone
1320,Cs,C3H6O,2-Propen-1-ol
1321,Cs,CH3CH2CHO,Propanal
1322,Cs,C3H6O,Oxetane
1323,Cs,C3H6O,Acetone enol
1324,Cs,HOCH2CH2NH2,monoethanolamine
1325,Cs,C3H7OH,1-Propanol
1326,Cs,CH3OC2H5,"Ethane, methoxy-"
1327,Cs,FONO,Nitrosyl hypofluorite
1328,Cs,NF3-,Nitrogen trifluoride anion
1329,Cs,CH3COF,Acetyl fluoride
1330,Cs,CH2FCHO,Fluoroacetaldehyde
1331,Cs,CH3CHF2,"Ethane, 1,1-difluoro-"
1332,Cs,CH2CHCH2F,Allyl Fluoride
1333,Cs,CH2CFCH3,2-fluoropropene
1334,Cs,CH3CHCHF,trans-1-Fluoro-1-propene
1335,Cs,CH3CHFCH3,2-Fluoropropane
1336,Cs,CH2FCH2CH3,1-Fluoropropane
1337,Cs,F2SO,Thionyl Fluoride
1338,Cs,SF3,Sulfur trifluoride
1339,Cs,S2F2,Thio-thionyl fluoride
1340,Cs,H2SO3,Sulfurous acid
1341,Cs,C3H6S,Thietane
1342,Cs,CH3SOCH3,Dimethyl sulfoxide
1343,Cs,CH3CHSHCH3,2-Propanethiol
1344,Cs,C3H7SH,1-Propanethiol
1345,Cs,CH3SCH2CH3,"Ethane, (methylthio)-"
1346,Cs,COFCl,Carbonic chloride fluoride
1347,Cs,ClONO,chlorine nitrite
1348,Cs,CF2Cl,difluorochloromethyl radical
1349,Cs,ClO2F,Chloryl fluoride
1350,Cs,CFCl2,dichlorofluoromethyl radical
1351,Cs,SOCl2,thionyl chloride
1352,Cs,SSCl2,Thiothionyl chloride
1353,Cs,CHF2Cl,difluorochloromethane
1354,Cs,HClO3,Chloric Acid
1355,Cs,CHFCl2,fluorodichloromethane
1356,Cs,CHFCHClz,(Z)-1-Chloro-2-fluoroethene
1357,Cs,CHFCHCl,(E)-1-chloro-2-fluoroethene
1358,Cs,C2H2ClF,1-chloro-1-fluoroethylene
1359,Cs,CH3COCl,Acetyl Chloride
1360,Cs,CH2ClCHO,chloroacetaldehyde
1361,Cs,CH2FCH2Cl,"Ethane, 1-chloro-2-fluoro-"
1362,Cs,CH3CHCl2,"Ethane, 1,1-dichloro-"
1363,Cs,C3H5Cl,"1-Propene, 3-chloro-"
1364,Cs,C3H5Cl,1-chloro-1-propene(Z)
1365,Cs,C3H5Cl,1-chloro-1-propene(E)
1366,Cs,CH2ClCH2OH,2-Chloroethanol
1367,Cs,CH3CHClCH3,"Propane, 2-chloro-"
1368,Cs,CH2ClCH2CH3,"Propane, 1-chloro-"
1369,Cs,SeOCl2,selenium oxychloride
1370,Cs,BrONO,Bromine nitrite
1371,Cs,CHBrF2,"Methane, bromodifluoro-"
1372,Cs,CHBrCl2,"Methane, bromodichloro-"
1373,Cs,CHBr2F,dibromofluoromethane
1374,Cs,CHClBr2,"Methane, dibromochloro-"
1375,Cs,CH2BrCH2Cl,1-bromo-2-chloroethane
1376,Cs,CH3CHBrCH3,i-propyl bromide
1377,Cs,CH3CH2CH2Br,n-propyl bromide
1378,Cs,CHF2I,difluoroiodomethane
1379,Cs,CHCl2I,dichloroiodomethane
1380,Cs,C5H6,"1-Buten-3-yne, 2-methyl-"
1381,Cs,C5H6,"3-Penten-1-yne, (Z)-"
1382,Cs,C5H6,"3-Penten-1-yne, (E)-"
1383,Cs,C5H6,Bicyclo[2.1.0]pent-2-ene
1384,Cs,C5H6,Cyclopropylacetylene
1385,Cs,C5H8,"1,3-Butadiene, 2-methyl-"
1386,Cs,C5H8,Cyclopentene
1387,Cs,C5H8,Bicyclo[2.1.0]pentane
1388,Cs,C5H8,1-pentyne
1389,Cs,CH3CCCH2CH3,2-Pentyne
1390,Cs,C5H8,Ethenylcyclopropane
1391,Cs,C5H8,"Cyclobutane, methylene-"
1392,Cs,C5H8,"1,3-Pentadiene, (Z)-"
1393,Cs,C5H8,"1,3-Pentadiene, (E)-"
1394,Cs,C5H10,"2-Butene, 2-methyl-"
1395,Cs,C5H10,"2-Pentene, (E)-"
1396,Cs,CH2N4,1H-Tetrazole
1397,Cs,C3H4N2,1H-Pyrazole
1398,Cs,C3H4N2,1H-Imidazole
1399,Cs,C3H4N2,4H-Imidazole
1400,Cs,CH2CHCH2CN,Allylcyanide
1401,Cs,C4H5N,(E)-2-Butenenitrile
1402,Cs,C4H5N,(Z)-2-Butenenitrile
1403,Cs,C4H5N,Cyclopropanecarbonitrile
1404,Cs,C4H5N,3H-pyrrole
1405,Cs,C4H5N,2H-pyrrole
1406,Cs,C4H6N+,"pyrrole, beta-protonated"
1407,Cs,C4H6N+,"pyrrole, alpha-protonated"
1408,Cs,C3H6N2,3-Aminopropionitrile
1409,Cs,CH3CH(CH3)CN,"Propanenitrile, 2-methyl-"
1410,Cs,CH3CH2CH2CN,Butanenitrile
1411,Cs,C4H9N,Pyrrolidine
1412,Cs,C4H9N,Cyclobutylamine
1413,Cs,NH(C2H5)2,diethylamine
1414,Cs,N2O3,Dinitrogen trioxide
1415,Cs,C3H2O2,Propiolic acid
1416,Cs,CHOCOOH,oxo acetic acid
1417,Cs,CHOOCHO,diformyl ether
1418,Cs,C3H3NO,Isoxazole
1419,Cs,C3H3NO,Oxazole
1420,Cs,CH3C(O)OO,acetyl peroxy radical
1421,Cs,CH3NO3,Methyl nitrate
1422,Cs,CH3COCCH,3-butyn-2-one
1423,Cs,C3H4O2,β–Propiolactone
1424,Cs,C3H4O2,Methyl glyoxal
1425,Cs,C3H4O2,2-Propenoic acid
1426,Cs,C3H4O2,propenalol
1427,Cs,HOCH2COOH,Hydroxyacetic acid
1428,Cs,C2H4O3,"1,2,3-trioxolane"
1429,Cs,CH3OCH2CN,Methoxyacetonitrile
1430,Cs,H2NCH2COOH,Glycine
1431,Cs,CHOCHCHCH3,2-Butenal
1432,Cs,C4H6O,cis-2-butenal
1433,Cs,CH3CH2COOH,Propanoic Acid
1434,Cs,CH3COOCH3,methyl acetate
1435,Cs,HCOOC2H5,Ethyl formate
1436,Cs,C2H6N2O,"Urea, methyl-"
1437,Cs,C3H6O2,"1,3-Dioxolane"
1438,Cs,C3H7NO,dimethylformamide
1439,Cs,CHOCH(CH3)CH3,"Propanal, 2-methyl-"
1440,Cs,CH3COCH2CH3,2-Butanone
1441,Cs,C4H8O,"Furan, tetrahydro-"
1442,Cs,CHOCH2CH2CH3,Butanal
1443,Cs,C4H8O,Cyclobutanol
1444,Cs,C4H10O,1-Butanol
1445,Cs,C4H10O,"Ethanol, 1,1-dimethyl-"
1446,Cs,C4H10O,Methyl propyl ether
1447,Cs,FNO3,Fluorine nitrate
1448,Cs,C2HF3,Trifluoroethylene
1449,Cs,CF3OH,trifluoromethanol
1450,Cs,CHF2CH2F,"Ethane, 1,1,2-trifluoro"
1451,Cs,PF3CH2,"phosphorane, trifluoromethylene-"
1452,Cs,CF3PH2,"phosphine, (trifluoromethyl)-"
1453,Cs,HSO4-,bisulfate anion
1454,Cs,C3H3NS,Thiazole
1455,Cs,CH3SO2NH2,methanesulfonamide
1456,Cs,C(CH3)3SH,"2-Propanethiol, 2-methyl-"
1457,Cs,C4H9SH,1-Butanethiol
1458,Cs,ClONO2,Chlorine nitrate
1459,Cs,ClOF3,Chlorine trifluoride oxide
1460,Cs,HClO4,perchloric acid
1461,Cs,CHClCCl2,Trichloroethylene
1462,Cs,CH2ClCCCl,"1,3-dichloropropyne"
1463,Cs,CHCl2CCH,"3,3-dichloropropyne"
1464,Cs,CH3CF2Cl,"1-Chloro-1,1-Difluoroethane"
1465,Cs,CH3CFCl2,"1,1-Dichloro-1-fluoroethane"
1466,Cs,CH2CClCHCH2,"1,3-Butadiene, 2-chloro-"
1467,Cs,CH2ClCHCHCH3,"2-Butene, 1-chloro-"
1468,Cs,CH2CClCH2CH3,"1-Butene, 2-chloro-"
1469,Cs,CH3CClCHCH3,"2-Butene, 2-chloro-, (Z)-"
1470,Cs,CH3CClCHCH3,"2-Butene, 2-chloro-, (E)-"
1471,Cs,CHClCHCH2CH3,(Z)-1-Chloro-1-butene
1472,Cs,CH2ClCH2CH2CH3,"Butane, 1-chloro-"
1473,Cs,CaCO3,Calcium Carbonate
1474,Cs,BrONO2,Bromine nitrate
1475,Cs,CBrClF2,"Methane, bromochlorodifluoro-"
1476,Cs,CBrCl2F,bromodichlorofluoromethane
1477,Cs,CBr2ClF,dibromochlorofluoromethane
1478,Cs,CHBrCF2,"1-Bromo-2,2-difluoroethylene"
1479,Cs,C6H10,Bicyclo[3.1.0]hexane
1480,Cs,C6H10,1-Hexyne
1481,Cs,C6H10,2-Hexyne
1482,Cs,C6H10,"2,4-Hexadiene, (E,Z)-"
1483,Cs,C6H10,"2,4-Hexadiene, (Z,Z)-"
1484,Cs,C6H10,"1,3-Hexadiene, (Z)-"
1485,Cs,C6H10,"1,3-Hexadiene, (E)-"
1486,Cs,C6H12,"2,3-dimethylbut-1-ene"
1487,Cs,C6H12,"(1r,3r)-1,3-dimethylcyclobutane"
1488,Cs,C6H12,(E)-2-Hexene
1489,Cs,C6H12,(Z)-hex-2-ene
1490,Cs,C6H12,"cis-1,2-dimethylcyclobutane"
1491,Cs,C4H6(CH3)2,"1,1-dimethylcyclobutane"
1492,Cs,C6H14,"Pentane, 3-methyl-"
1493,Cs,C2H4N4,"1H-Tetrazole, 5-methyl-"
1494,Cs,C2H4N4,"1H-Tetrazole, 1-methyl-"
1495,Cs,C5H5N,"E-2,4-pentadienenitrile"
1496,Cs,C5H5N,Bicyclo[1.1.0]butane-1-carbonitrile
1497,Cs,C5H7N,Cyclobutanecarbonitrile
1498,Cs,C5H7N,(E)-2-Pentenenitrile
1499,Cs,C5H9N,Pentanenitrile
1500,Cs,C5H11N,Piperidine
1501,Cs,C5H11N,Cyclopentanamine
1502,Cs,C4H12N2,"2-Methyl-1,2-propanediamine"
1503,Cs,C2H3NO3,Oxamic acid
1504,Cs,C4H4O2,2(5H)-Furanone
1505,Cs,C5H6O,2-methylfuran
1506,Cs,C5H6O,Pentadienal
1507,Cs,C5H6O,3-Methylfuran
1508,Cs,C4H6O2,Crotonic Acid
1509,Cs,C4H7NO,"Oxazole, 4,5-dihydro-2-methyl-"
1510,Cs,C4H7NO,Ethoxyacetonitrile
1511,Cs,HCONH2CN2H4,formamide aminomethanimine dimer
1512,Cs,C3H7ONO,Propyl nitrite
1513,Cs,C5H8O,Methyl cyclopropyl ketone
1514,Cs,C4H8O2,Ethyl acetate
1515,Cs,C4H8O2,"1,3-Dioxane"
1516,Cs,C5H10O,2-Pentanone
1517,Cs,C5H10O,Pentanal
1518,Cs,C5H10O,"2H-Pyran, tetrahydro-"
1519,Cs,C5H10O,"Oxetane, 3,3-dimethyl-"
1520,Cs,C4H10O2,"1,1-Dimethoxyethane"
1521,Cs,C4H11NO,Diethylhydroxylamine
1522,Cs,C5H12O,1-Pentanol
1523,Cs,C5H12O,"1-Butanol, 3-methyl-"
1524,Cs,C5H12O,"Butane, 1-methoxy-"
1525,Cs,C5H12O,"Propane, 1-ethoxy-"
1526,Cs,C5H12O,"Propane, 2-methoxy-2-methyl-"
1527,Cs,CF3CN+,"Acetonitrile, trifluoro- cation"
1528,Cs,CF3OF,Trifluoromethylhypofluorite
1529,Cs,CF3CHO,trifluoroacetaldehyde
1530,Cs,CF3CH2F,"1,1,1,2-tetrafluoroethane"
1531,Cs,CF3COOH,trifluoroacetic acid
1532,Cs,SF5,Sulfur pentafluoride
1533,Cs,C3H4O2S,"2H-Thiete-1,1-dioxide"
1534,Cs,C5H6S,"Thiophene, 2-methyl-"
1535,Cs,C5H6S,"Thiophene, 3-methyl-"
1536,Cs,C4H6OS,Vinyl sulfoxide
1537,Cs,C5H10S,"2H-Thiopyran, tetrahydro-"
1538,Cs,C5H10S,3-Ethylthio-1-propene
1539,Cs,C5H12S,1-Pentanethiol
1540,Cs,C5H12S,"1-Butanethiol, 3-methyl-"
1541,Cs,C5H12S,"Butane, 1-(methylthio)-"
1542,Cs,C5H12S,"1-Propanethiol, 2,2-dimethyl-"
1543,Cs,C5H12S,"2-Butanethiol, 2-methyl-"
1544,Cs,C5H12S,Ethyl propyl sulfide
1545,Cs,C5H12S,"Propane, 2-(ethylthio)-"
1546,Cs,C5H12S,"Propane, 2-methyl-2-(methylthio)-"
1547,Cs,C2ClF3,"Ethene, chlorotrifluoro-"
1548,Cs,C2FCl3,fluorotrichloroethene
1549,Cs,CCl3CHO,trichloroacetaldehyde
1550,Cs,CF3CH2Cl,"2,2,2-Trifluoroethyl chloride"
1551,Cs,CHCl2CHF2,"1,1-dichloro-2,2-difluoroethane"
1552,Cs,C4H3ClO,"Furan, 2-chloro"
1553,Cs,C4H3ClO,"Furan,3-chloro"
1554,Cs,C3H5Cl3,"Propane, 1,2,3-trichloro-"
1555,Cs,C4H9ClO,1-Chloro-2-ethoxyethane
1556,Cs,C5H11Cl,"Pentane, 1-chloro-"
1557,Cs,CH2BrCBr3,"1,1,1,2-tetrabromo ethane"
1558,Cs,C7H7,cycloheptatrienyl radical
1559,Cs,C6H5CH3,toluene
1560,Cs,C7H8,cycloheptatriene
1561,Cs,C7H10,Norbornene
1562,Cs,HN=C=C(CN)2,Dicyanoketenimine
1563,Cs,C6H7N,2-Methylpyridine
1564,Cs,C6H5NH2,aniline
1565,Cs,N2O5,Dinitrogen pentoxide
1566,Cs,C5H4O2,furfural
1567,Cs,C5H5NO,3-Pyridinol
1568,Cs,C5H5NO,2-Pyridinol
1569,Cs,C5H5NO,4-Pyridinol
1570,Cs,C5H5NO,3(2H)-Pyridinone
1571,Cs,C5H5NO,3(6H)-Pyridinone
1572,Cs,C5H5NO,3(4H)-Pyridinone
1573,Cs,C5H5NO,2(5H)-Pyridinone
1574,Cs,C5H5NO,4(3H)-Pryidinone
1575,Cs,C5H5NO,2(1H)-Pyridinone
1576,Cs,C6H5OH,phenol
1577,Cs,C6H6O,"2,5-Cyclohexadienone"
1578,Cs,C6H6O,"2,4-Cyclohexadienone"
1579,Cs,C6H10O,cyclohexanone
1580,Cs,C6H12O,hexanal
1581,Cs,CF3COO-,trifluoro acetate anion
1582,Cs,CF3COF,trifluoroacetyl fluoride
1583,Cs,CF3CHF2,pentafluoroethane
1584,Cs,C6H5SH,Benzenethiol
1585,Cs,CF3COCl,trifluoroacetyl chloride
1586,Cs,CF3CHCl2,"1,1-Dichloro-2,2,2-trifluoroethane"
1587,Cs,CHCl2CClF2,"Ethane, 1,2,2-trichloro-1,1-difluoro-"
1588,Cs,CCl3CHCl2,pentachloroethane
1589,Cs,C6H5CHCH2,Styrene
1590,Cs,C6H5CH2CH3,Ethylbenzene
1591,Cs,CH3C6H4CH3,meta-xylene
1592,Cs,C8H16,cyclooctane
1593,Cs,C4H4N2O2,Uracil
1594,Cs,C6H5NO,nitrosobenzene
1595,Cs,C6H5CHO,benzaldehyde
1596,Cs,C6H5OCH3,Anisole
1597,Cs,C6H12O2,Hexanoic acid
1598,Cs,CF3CF2Cl,pentafluorochloroethane
1599,Cs,CF3CFCl2,"1,1-Dichlorotetrafluoroethane"
1600,Cs,C9H8,Indene
1601,Cs,C9H12,n-propyl benzene
1602,Cs,C5H4N4,purine
1603,Cs,C8H7N,Indole
1604,Cs,C6H5COOH,benzoic acid
1605,Cs,CH3COC6H5,acetophenone
1606,Cs,C8H18O,1-Octanol
1607,Cs,C3F6,hexafluoropropene
1608,Cs,C10H8,Azulene
1609,Cs,SF5CF3,"Sulfur, pentafluoro(trifluoromethyl)-"
1610,D∞h,H2,Hydrogen diatomic
1611,D∞h,D2,Deuterium diatomic
1612,D∞h,He2+,helium diatomic cation
1613,D∞h,BeH2,beryllium dihydride
1614,D∞h,BH2+,Boron dihydride cation
1615,D∞h,CH2,Methylene
1616,D∞h,MgH2,magnesium dihydride
1617,D∞h,AlH2+,aluminum dihydride cation
1618,D∞h,CaH2,Calcium Hydride
1619,D∞h,ZnH2,Zinc hydride
1620,D∞h,Li2,Lithium diatomic
1621,D∞h,Be2,Beryllium diatomic
1622,D∞h,B2,Boron diatomic
1623,D∞h,HBBH,Diborane(2)
1624,D∞h,C2,Carbon diatomic
1625,D∞h,C2H2,Acetylene
1626,D∞h,N2,Nitrogen diatomic
1627,D∞h,O2,Oxygen diatomic
1628,D∞h,F2,Fluorine diatomic
1629,D∞h,FHF,Hydrogen difluoride
1630,D∞h,Ne2,Neon diatomic
1631,D∞h,Na2,Sodium diatomic
1632,D∞h,Mg2,Magnesium diatomic
1633,D∞h,Al2,Aluminum diatomic
1634,D∞h,Si2,Silicon diatomic
1635,D∞h,Si2H2,disilyne
1636,D∞h,P2,Phosphorus diatomic
1637,D∞h,S2,Sulfur diatomic
1638,D∞h,Cl2,Chlorine diatomic
1639,D∞h,Ar2,Argon diatomic
1640,D∞h,K2,Potassium diatomic
1641,D∞h,Ca2,Calcium diatomic
1642,D∞h,Cu2,Copper diatomic
1643,D∞h,Ga2,Gallium diatomic
1644,D∞h,Ge2,Germanium diatomic
1645,D∞h,As2,Arsenic diatomic
1646,D∞h,Se2,Selenium diatomic
1647,D∞h,Br2,Bromine diatomic
1648,D∞h,Te2,Tellurium diatomic
1649,D∞h,I2,Iodine diatomic
1650,D∞h,C3,carbon trimer
1651,D∞h,NCN,Cyanoimidogen
1652,D∞h,N3,azide radical
1653,D∞h,Li2O,dilithium oxide
1654,D∞h,BO2,Boron dioxide
1655,D∞h,CO2,Carbon dioxide
1656,D∞h,NO2+,Nitrogen dioxide cation
1657,D∞h,Be(OH)2,Beryllium hydroxide
1658,D∞h,BeF2,Beryllium fluoride
1659,D∞h,F3-,trifluoride anion
1660,D∞h,Na2O,disodium monoxide
1661,D∞h,MgF2,Magnesium fluoride
1662,D∞h,Mg(OH)2,Magnesium dihydroxide
1663,D∞h,SiO2,silicon dioxide
1664,D∞h,PO2+,Phosphorus dioxide cation
1665,D∞h,Li2S,dilithium sulfide
1666,D∞h,SF2-,sulfur difluoride anion
1667,D∞h,CS2,Carbon disulfide
1668,D∞h,Na2S,Sodium sulfide
1669,D∞h,SiS2,Silicon disulfide
1670,D∞h,BeCl2,Beryllium chloride
1671,D∞h,MgCl2,Magnesium dichloride
1672,D∞h,Cl3-,trichloride anion
1673,D∞h,CaCl2,Calcium Chloride
1674,D∞h,CuF2,Copper difluoride
1675,D∞h,ZnF2,Zinc difluoride
1676,D∞h,ZnCl2,Zinc dichloride
1677,D∞h,GeO2,Germanium dioxide
1678,D∞h,GeS2,Germanium disulfide
1679,D∞h,CSe2,Carbon diselenide
1680,D∞h,BeBr2,Beryllium bromide
1681,D∞h,CaBr2,Calcium dibromide
1682,D∞h,Br3-,tribromide anion
1683,D∞h,KrF2,Krypton difluoride
1684,D∞h,I3-,triiodide
1685,D∞h,XeF2,Xenon difluoride
1686,D∞h,C4,Carbon tetramer
1687,D∞h,C4H2,Diacetylene
1688,D∞h,C2N2,Cyanogen
1689,D∞h,B2O2,Diboron dioxide
1690,D∞h,C2F2,difluoroacetylene
1691,D∞h,C2Cl2,dichloroacetylene
1692,D∞h,C3O2,Carbon suboxide
1693,D∞h,B2O3,diboron trioxide
1694,D∞h,C6H2,hexatriyne
1695,D∞h,C4N2,2-Butynedinitrile
1696,D∞h,C4F2,difluorobutadiyne
1697,D2,C2H4+,Ethylene cation
1698,D2,C6H12,"2,3-dimethyl-but-2-ene"
1699,D2,B2F4,Diboron tetrafluoride
1700,D2,C12H10,biphenyl
1701,D2d,BH4,borohydride
1702,D2d,CH4+,Methane cation
1703,D2d,B2H4,Diborane(4) D2d
1704,D2d,CH2CCH2,allene
1705,D2d,C4H8,cyclobutane
1706,D2d,NH2CCNH2,Diaminoacetylene
1707,D2d,S4,Sulfur tetramer
1708,D2d,C5H4,pentatetraene
1709,D2d,C5H8,Spiropentane
1710,D2d,C2O4--,oxalate anion
1711,D2d,B2F4,Diboron tetrafluoride
1712,D2d,B2Cl4,Diboron tetrachloride
1713,D2d,F2CCCF2,tetrafluoroallene
1714,D2d,C8H8,cyclooctatetraene
1715,D2d,S4N4,Tetrasulfur tetranitride
1716,D2d,C9H8,"spiro[4.4]nona-1,3,6,8-tetraene"
1717,D2h,B2H6,Diborane
1718,D2h,C2H4,Ethylene
1719,D2h,Al2H6,dialane
1720,D2h,Ga2H6,digallane
1721,D2h,C4H4,cyclobutadiene
1722,D2h,H2CCCCH2,Butatriene
1723,D2h,Li2O2,dilithium dioxide
1724,D2h,C2H4O2,"1,3-dioxetane"
1725,D2h,Li2F2,Lithium fluoride dimer
1726,D2h,Na2O2,disodium dioxide
1727,D2h,Na2F2,Sodium Fluoride Dimer
1728,D2h,S2N2,Disulfur dinitride
1729,D2h,S4,Sulfur tetramer
1730,D2h,Na2Cl2,Disodium dichloride
1731,D2h,K2O2,dipotassium dioxide
1732,D2h,C6H8,"1,4-Cyclohexadiene"
1733,D2h,C6H8,Bicyclo[2.2.0]hex-1(4)-ene
1734,D2h,C2H2N4,sym-tetrazine
1735,D2h,C4H4N2,Pyrazine
1736,D2h,N2O4,Dinitrogen tetroxide
1737,D2h,B2F4,Diboron tetrafluoride
1738,D2h,C2F4,Tetrafluoroethylene
1739,D2h,C2Cl4,Tetrachloroethylene
1740,D2h,C2Br4,tetrabromoethene
1741,D2h,C6H4O2,parabenzoquinone
1742,D2h,C6H4F2,"1,4-difluorobenzene"
1743,D2h,Al2Cl6,"Aluminum, di-μ-chlorotetrachlorodi-"
1744,D2h,C6H4Cl2,"1,4-dichlorobenzene"
1745,D2h,C10H8,naphthalene
1746,D2h,C6N4,Tetracyanoethylene
1747,D2h,C12H8,biphenylene
1748,D2h,C14H10,Anthracene
1749,D2h,C16H10,Pyrene
1750,D2h,C18H12,Tetracene
1751,D3,CH6N3+,guanidinium
1752,D3,C6H6,"2,4-Hexadiyne"
1753,D3,C8H14,Bicyclo[2.2.2]octane
1754,D3,C6H12N2,Triethylenediamine
1755,D3d,C2H6,Ethane
1756,D3d,C2H7+,"Ethane, protonated"
1757,D3d,Si2H6,disilane
1758,D3d,Zn(CH3)2,dimethyl zinc
1759,D3d,C6H6,"2,4-Hexadiyne"
1760,D3d,C6H12,Cyclohexane
1761,D3d,(CH3)3CC(CH3)3,tetramethylbutane
1762,D3d,C2F6,hexafluoroethane
1763,D3d,C2Cl6,hexachloroethane
1764,D3d,C6H12O6,Inositol
1765,D3h,H3+,hydrogen trimer cation
1766,D3h,BH3,boron trihydride
1767,D3h,CH3,Methyl radical
1768,D3h,NH3+,ammonia cation
1769,D3h,AlH3,aluminum trihydride
1770,D3h,SiH3+,Silyl cation
1771,D3h,ScH3,Scandium trihydride
1772,D3h,GaH3,Gallium trihydride
1773,D3h,GeH3+,germyl cation
1774,D3h,C2H6,Ethane
1775,D3h,Li3+,Lithium trimer cation
1776,D3h,C3H3,cyclopropenyl radical
1777,D3h,C3H6,Cyclopropane
1778,D3h,Zn(CH3)2,dimethyl zinc
1779,D3h,CH3CCCH3,2-Butyne
1780,D3h,Li3N,trilithium nitride
1781,D3h,CH6N3+,guanidinium
1782,D3h,CO3--,carbonate
1783,D3h,NO3,Nitrogen trioxide
1784,D3h,BF3,"Borane, trifluoro-"
1785,D3h,CF3+,Trifluoromethyl cation
1786,D3h,AlF3,Aluminum trifluoride
1787,D3h,SiF3+,Silicon trifluoride cation
1788,D3h,SO3,Sulfur trioxide
1789,D3h,CS3--,Carbonotrithioate
1790,D3h,ClF3,Chlorine trifluoride
1791,D3h,BCl3,"Borane, trichloro-"
1792,D3h,CCl3+,Trichloromethyl cation
1793,D3h,AlCl3,Aluminum trichloride
1794,D3h,SiCl3+,trichlorosilyl cation
1795,D3h,ScF3,Scandium trifluoride
1796,D3h,GaF3,Gallium trifluoride
1797,D3h,GaCl3,Gallium trichloride
1798,D3h,SeO3,selenium trioxide
1799,D3h,BBr3,Boron tribromide
1800,D3h,AlBr3,Aluminum Bromide
1801,D3h,TeO3,Tellurium trioxide
1802,D3h,C5H6,Propellane
1803,D3h,C5H8,Bicyclo[1.1.1]pentane
1804,D3h,C6H6,Prismane
1805,D3h,C6H6,"2,4-Hexadiyne"
1806,D3h,C6H6,Trimethylenecycopropane
1807,D3h,C3H3N3,"1,3,5-Triazine"
1808,D3h,B3N3H6,borazine
1809,D3h,SiF5-,silicon pentafluoride anion
1810,D3h,PF5,Phosphorus pentafluoride
1811,D3h,N3P3,"1,3,5,2,4,6-Triazatriphosphorine"
1812,D3h,SF5+,pentafluoro sulfur cation
1813,D3h,ClF5,chlorinepentafluoride
1814,D3h,PCl5,Phosphorus pentachloride
1815,D3h,AsF5,Arsenic pentafluoride
1816,D3h,SbCl5,Antimony pentachloride
1817,D3h,C8H14,Bicyclo[2.2.2]octane
1818,D3h,C6H12N2,Triethylenediamine
1819,D3h,C3H3N3O3,cyanuric acid
1820,D3h,C3Cl3N3,"1,3,5-Triazine, 2,4,6-trichloro-"
1821,D3h,Fe(CO)5,Iron pentacarbonyl
1822,D4d,S8,Octasulfur
1823,D4d,S2F10,disulphur decafluoride
1824,D4h,C4H4,cyclobutadiene
1825,D4h,XeF4,Xenon tetrafluoride
1826,D4h,C4O4--,squarate dianion
1827,D4h,C4F4,tetrafluorcyclobutadiene
1828,D5d,Fe(C5H5)2,ferrocene
1829,D5h,C5H5,cyclopentadienyl radical
1830,D5h,C5H5-,cylopentadienyl anion
1831,D5h,IF7,Iodine heptafluoride
1832,D5h,Fe(C5H5)2,ferrocene
1833,D6h,C6H6,Benzene
1834,D6h,C6F6,hexafluorobenzene
1835,D6h,C24H12,Coronene
1836,D7h,C7H7+,cycloheptatrienyl cation
1837,Ih,B12H12--,Dodecahydrododecaborate(2-)
1838,Ih,C60,Buckminsterfullerene
1839,Kh,H,Hydrogen atom
1840,Kh,D,Deuterium atom
1841,Kh,He,Helium atom
1842,Kh,Li,Lithium atom
1843,Kh,Be,Beryllium atom
1844,Kh,B,Boron atom
1845,Kh,C,Carbon atom
1846,Kh,N,Nitrogen atom
1847,Kh,O,Oxygen atom
1848,Kh,F,Fluorine atom
1849,Kh,Ne,Neon atom
1850,Kh,Na,Sodium atom
1851,Kh,Mg,Magnesium atom
1852,Kh,Al,Aluminum atom
1853,Kh,Si,Silicon atom
1854,Kh,P,Phosphorus atom
1855,Kh,S,Sulfur atom
1856,Kh,Cl,Chlorine atom
1857,Kh,Ar,Argon atom
1858,Kh,K,Potassium atom
1859,Kh,Ca,Calcium atom
1860,Kh,Sc,Scandium atom
1861,Kh,Ti,Titanium atom
1862,Kh,V,Vanadium atom
1863,Kh,Cr,Chromium atom
1864,Kh,Mn,Manganese atom
1865,Kh,Fe,Iron atom
1866,Kh,Co,Cobalt atom
1867,Kh,Ni,Nickel atom
1868,Kh,Cu,Copper atom
1869,Kh,Zn,Zinc atom
1870,Kh,Ga,Gallium atom
1871,Kh,Ge,Germanium atom
1872,Kh,As,Arsenic atomic
1873,Kh,Se,Selenium atom
1874,Kh,Br,Bromine atom
1875,Kh,Kr,Krypton atom
1876,Kh,Sn,Tin atom
1877,Kh,Te,Tellurium atom
1878,Kh,I,Iodine atom
1879,Kh,Xe,Xenon atom
1880,Oh,Sn+,Tin cation
1881,Oh,Sb,Antimony atom
1882,Oh,PF6-,Hexafluorophosphate ion
1883,Oh,SF6,Sulfur Hexafluoride
1884,Oh,SeF6,Selenium hexafluoride
1885,Oh,C8H8,cubane
1886,Td,BH4-,borohydride anion
1887,Td,CH4,Methane
1888,Td,CD4,methane-d4
1889,Td,NH4,Ammonium radical
1890,Td,AlH4-,Aluminum tetrahydride anion
1891,Td,SiH4,Silane
1892,Td,PH4+,phosphonium cation
1893,Td,GeH4,Germane
1894,Td,AsH4+,Arsonium
1895,Td,SnH4,Stannane
1896,Td,C4H4,Tetrahedrane
1897,Td,P4,Phosphorus tetramer
1898,Td,As4,Arsenic tetramer
1899,Td,C5H12,"Propane, 2,2-dimethyl-"
1900,Td,NC4H12+,tetramethyl ammonium cation
1901,Td,BF4-,tetrafluoroboron anion
1902,Td,CF4,Carbon tetrafluoride
1903,Td,SiF4,Silicon tetrafluoride
1904,Td,Si(CH3)4,tetramethylsilane
1905,Td,PO4---,phosphate
1906,Td,SO4--,sulfate
1907,Td,ClO4-,perchlorate anion
1908,Td,CCl4,Carbon tetrachloride
1909,Td,SiCl4,"Silane, tetrachloro-"
1910,Td,TiF4,Titanium tetrafluoride
1911,Td,TiCl4,Titanium tetrachloride
1912,Td,GeF4,Germanium tetrafluoride
1913,Td,GeCl4,Germanium Tetrachloride
1914,Td,CBr4,Carbon tetrabromide
1915,Td,SiBr4,Silicon tetrabromide
1916,Td,GeBr4,Germanium tetrabromide
1917,Td,CI4,tetraiodomethane
1918,Td,SiI4,silicon tetraiodide
1919,Td,C(CN)4,tetracyanomethane
1920,Td,C10H16,adamantane
