8

C          0.90979       -0.06433       -0.00910
C          0.40607        0.35093       -1.38606
Cl        -1.19470       -0.34159       -1.76360
F          0.31667        1.70835       -1.47795
F          0.09504        0.34123        0.99056
F          2.13895        0.45530        0.23391
F          1.03472       -1.41113        0.08731
H          1.10053        0.01302       -2.16012
