13

C          0.93605        0.00166       -0.08969
C          0.28380       -1.09891       -0.34476
C         -0.36504       -2.19371       -0.59850
C          0.23722        1.29703        0.21036
C          2.43700        0.05970       -0.07605
H         -1.07602       -2.59227        0.11578
H         -0.20613       -2.72668       -1.52868
H         -0.85227        1.18466        0.18434
H          0.51333        2.05912       -0.52551
H          0.51329        1.65787        1.20642
H          2.88185       -0.91563       -0.30213
H          2.79800        0.37264        0.90897
H          2.79815        0.77407       -0.82292
