8

C          0.31458        0.94788       -0.23683
O          0.95287       -0.32171       -0.08722
C         -0.32070       -0.96800       -0.14464
O         -0.95583        0.31118       -0.08743
H          0.46216        1.39264       -1.22349
H          0.54517        1.64356        0.57169
H         -0.52685       -1.58946        0.72743
H         -0.49479       -1.49334       -1.08624
