10

C         -0.75264        1.16255        0.00991
C          0.62315        1.18287        0.02506
N          1.38329        0.07254        0.05298
C          0.71225       -1.09012        0.06507
N         -0.62261       -1.23196        0.04914
C         -1.32919       -0.08681        0.02134
H         -1.34152        2.06813       -0.00994
H          1.17124        2.12047        0.01498
H          1.30314       -1.99878        0.09098
H         -2.40847       -0.20754        0.00817
