13

C          1.12762        0.23695        0.08988
C          0.58758        1.40786        0.90627
O          1.09117        2.64606        0.42356
C          2.64116        0.08980        0.20522
O          3.29587        1.26154       -0.27110
H          0.87091        0.39820       -0.96358
H          0.64772       -0.69037        0.42140
H          0.85065        1.31051        1.96430
H         -0.50354        1.44304        0.82996
H          2.06846        2.56085        0.40728
H          2.99369       -0.76568       -0.37975
H          2.93849       -0.06474        1.24706
H          3.10598        1.32764       -1.22470
