10

C          1.24319       -0.30316       -0.05121
C          0.60552       -1.13999        0.93486
C         -0.59686       -1.69672        0.74947
C          2.44584        0.25308        0.13394
H          0.71440       -0.12188       -0.98470
H          1.13410       -1.32085        1.86857
H         -1.16792       -1.55012       -0.16172
H         -1.03917       -2.32040        1.51997
H          3.01718        0.10595        1.04487
H          2.88815        0.87676       -0.63656
