15

C          1.07303        0.03358       -0.09967
C          0.76557       -0.22409       -1.57191
C         -0.73091       -0.33373       -1.81681
C          2.57075        0.15117        0.15015
O          2.81229        0.37646        1.53260
H          0.66418       -0.77334        0.52125
H          0.57448        0.95156        0.23599
H          1.25236       -1.15072       -1.89767
H          1.17165        0.58878       -2.18512
H         -1.16283       -1.15981       -1.24289
H         -0.92929       -0.51659       -2.87750
H         -1.24398        0.58967       -1.52954
H          3.00604        0.97982       -0.41762
H          3.08749       -0.77007       -0.13642
H          2.35758        1.20024        1.77898
