18

C          1.23534       -0.29665       -0.39260
C          1.11846        0.54633       -1.67728
C         -0.25858        0.49962       -2.32240
C          0.93567       -1.79866       -0.56657
S          2.08575       -2.71302       -1.64328
C          2.60515       -0.06041        0.25877
H          0.48239        0.08824        0.31173
H          1.87338        0.24227       -2.41181
H          1.33886        1.59131       -1.43408
H         -0.49856       -0.49749       -2.69920
H         -0.29638        1.18912       -3.17280
H         -1.03572        0.80102       -1.61160
H         -0.07669       -1.94447       -0.95700
H          0.96149       -2.28599        0.41395
H          1.89563       -1.98071       -2.74902
H          3.42649       -0.39013       -0.38376
H          2.67739       -0.59430        1.21207
H          2.75368        1.00482        0.46387
