14

C          1.03448       -0.07329        0.07056
C          0.63664       -0.99500       -1.08203
C         -0.87357       -1.13817       -1.18463
C          2.54296        0.07283        0.17348
F          3.09247       -1.13976        0.44815
H          0.65037       -0.48619        1.01063
H          0.58280        0.91530       -0.06924
H          1.08224       -1.98628       -0.93936
H          1.02519       -0.59798       -2.02714
H         -1.29077       -1.56224       -0.26568
H         -1.13586       -1.80176       -2.01455
H         -1.34847       -0.16800       -1.36226
H          2.81288        0.75402        0.98541
H          2.97997        0.44316       -0.75848
