12

C          1.03126        0.20915        0.01581
C          0.24805        0.78831       -0.90864
C         -1.24485        0.80795       -0.84221
C          2.52573        0.18228       -0.03979
Cl         3.19002        1.01069        1.38315
H          0.57599       -0.28742        0.87051
H          0.69568        1.28808       -1.76532
H         -1.62702        0.29156        0.04398
H         -1.66330        0.32084       -1.72820
H         -1.60277        1.84168       -0.81599
H          2.91816        0.67932       -0.93190
H          2.88563       -0.85053       -0.03035
