13

C          0.93039        0.02849        0.03299
C          0.43630        0.32290        1.45046
O         -0.77280       -0.21702        1.70741
O          0.99729        1.01011        2.29118
C          0.38956        1.08752       -0.91846
N          2.40636        0.00763        0.00647
H          0.57730       -0.96551       -0.26154
H         -0.95209        0.04861        2.63372
H          0.73412        2.09028       -0.64028
H         -0.70578        1.10302       -0.89974
H          0.70481        0.89156       -1.94891
H          2.75085        0.83559        0.49870
H          2.73656        0.08341       -0.95349
