7

B          0.99096        0.05527       -0.05485
O          0.25731        0.65625        1.09257
O          0.24941       -0.49798       -1.20036
O          2.43414        0.07057       -0.07037
H         -0.71256        0.56937        0.92006
H         -0.71910       -0.40828       -1.02204
H          2.72296        0.49739        0.77714
