21

C         -1.52730        0.75229        0.11415
C         -1.52748       -0.75510       -0.11868
C         -0.30600       -1.50001        0.41735
C          0.95207       -1.23804       -0.40472
C          1.74770       -0.00284        0.00735
C          0.95081        1.23344        0.41372
C         -0.30229        1.49578       -0.41577
H         -1.64464        0.95376        1.18618
H         -2.41932        1.16786       -0.37150
H         -1.63959       -0.95640       -1.19131
H         -2.42239       -1.16974        0.36242
H         -0.52734       -2.57335        0.35667
H         -0.14207       -1.27621        1.47747
H          0.69526       -1.16998       -1.46919
H          1.61850       -2.10568       -0.31679
H          2.41492        0.26081       -0.82339
H          2.40870       -0.26733        0.84277
H          1.61847        2.10043        0.32899
H          0.68778        1.16643        1.47675
H         -0.13259        1.27090       -1.47474
H         -0.52306        2.56937       -0.35733
