16

C          1.03373        0.09292       -0.05119
C          2.55718        0.07494       -0.01599
C          3.11590       -1.19793        0.63657
C          3.40523       -0.83243        2.09311
C          3.56391        0.65037        2.03087
C          3.10006        1.14870        0.87905
H          0.65515       -0.71262       -0.68921
H          0.66338        1.04282       -0.45202
H          0.60137       -0.04043        0.94723
H          2.95200        0.18057       -1.03268
H          4.05734       -1.47540        0.14264
H          2.44544       -2.05990        0.55332
H          4.31130       -1.32776        2.45303
H          2.56927       -1.09670        2.74893
H          3.97414        1.24295        2.83670
H          3.08934        2.19966        0.62475
