8

C          1.02116        0.08827       -0.03830
C          0.51357       -0.63753       -1.27965
Cl         1.00444        0.18501       -2.78754
Cl         0.30667       -0.64825        1.42569
Cl         2.79973        0.01505        0.09642
H          0.72900        1.14257       -0.04529
H         -0.58069       -0.66920       -1.29029
H          0.88278       -1.66732       -1.32929
