10

C          0.85181        0.05863       -0.04677
C          2.22351        0.11132        0.49583
C          3.32037       -0.80265        0.34260
C          3.31242        0.55372       -0.13272
H          0.43389       -0.94629        0.07205
H          0.81700        0.31788       -1.11022
H          0.20906        0.75877        0.49628
H          3.22781       -1.58212       -0.39878
H          3.90767       -1.01355        1.22356
H          3.28076        1.00128       -1.11472
