15

C          0.97719       -0.07850        0.02191
C          0.44956       -0.56998        1.37352
O          0.86350       -1.90712        1.62299
C          0.44202        1.31912       -0.28199
C          2.50670       -0.08292       -0.01345
H          0.62918       -0.76476       -0.76056
H         -0.64507       -0.54497        1.39973
H          0.81945        0.05584        2.19252
H          0.52470       -2.45829        0.89712
H          0.77195        2.04386        0.47016
H         -0.65298        1.32116       -0.29745
H          0.79021        1.66485       -1.26105
H          2.92330        0.56795        0.76281
H          2.87288        0.27055       -0.98329
H          2.90266       -1.09185        0.14133
