5

B          1.09797        0.00953        0.01765
H          0.70092       -1.04426        0.40581
H          0.70092        0.87259        0.73617
H          0.70092        0.20027       -1.08905
H          2.28910        0.00953        0.01765
