7

C          0.93211        0.06315        0.03746
C         -0.51189        0.06315        0.03746
O         -1.05423       -0.94237        0.89891
N          2.08312        0.06315        0.03746
H         -0.90452       -0.11591       -0.96828
H         -0.90192        1.02768        0.37582
H         -0.63708       -1.78855        0.65549
