10

C          0.31907        1.04081       -0.03313
C          1.04634       -0.31701        0.03813
C         -0.32972       -0.94358        0.00056
C         -0.96500        0.24212       -0.00012
H          0.50635        1.60750       -0.95178
H          0.50165        1.69806        0.82377
H          1.61943       -0.47636        0.95824
H          1.69717       -0.52785       -0.81717
H         -0.66445       -1.97684        0.00419
H         -2.01063        0.53583       -0.00611
