16

O          1.08489       -0.07575       -0.04720
C          2.49794       -0.06930        0.00482
C          3.02376        1.05398        0.88430
C          4.42624        0.58361        1.22586
C          4.27835       -0.92009        1.43739
C          3.02558       -1.33836        0.66601
H          0.80215        0.78461       -0.40094
H          2.89127        0.01777       -1.01494
H          2.41171        1.16422        1.78780
H          3.01984        2.01818        0.36691
H          4.83299        1.08821        2.10701
H          5.10240        0.77586        0.38425
H          4.14764       -1.14332        2.50236
H          5.16748       -1.45947        1.09580
H          2.28524       -1.77752        1.34520
H          3.25606       -2.10175       -0.08511
