18

C          0.15418        1.29921       -0.96852
C          0.59753       -0.10095       -1.38110
C          0.95281       -1.02015       -0.21164
C          0.22479       -0.69773        1.08924
C         -1.11002       -0.01500        0.83174
C         -0.89804        1.32882        0.14255
H         -0.23505        1.82807       -1.84748
H          1.03238        1.86704       -0.63995
H          1.45436       -0.03215       -2.06323
H         -0.21165       -0.56449       -1.95714
H          2.03410       -0.99572       -0.02700
H          0.72239       -2.05257       -0.50612
H          0.85070       -0.03625        1.70157
H          0.07679       -1.61290        1.66969
H         -1.74081       -0.66036        0.20412
H         -1.64890        0.13455        1.77156
H         -0.58716        2.06982        0.89192
H         -1.85542        1.68740       -0.25355
