11

O          1.08458       -0.06015        0.09677
C          2.29229       -0.05977       -0.00123
C          3.36551        1.04437       -0.09957
C          4.32327       -0.05905       -0.61404
C          3.36616       -1.16324       -0.10001
H          3.62982        1.46770        0.87336
H          3.14219        1.83995       -0.81296
H          5.31711       -0.05884       -0.15666
H          4.44118       -0.05880       -1.70379
H          3.63072       -1.58679        0.87276
H          3.14332       -1.95867       -0.81371
