6

C          1.04838        0.07155       -0.06139
C         -0.48305        0.07155       -0.06139
C         -1.68305        0.07155       -0.06139
C          2.24837        0.07155       -0.06139
H         -2.74767        0.07155       -0.06139
H          3.31300        0.07155       -0.06139
