5

C          0.91755        0.03903        0.05729
Br         0.28372       -0.87939        1.65701
Br         0.28372        1.88253       -0.00682
Cl         0.31424       -0.82192       -1.37188
Cl         2.69169        0.04556        0.06813
