5

C          1.09998       -0.02364        0.02379
F          0.63206       -0.93024       -0.87142
F          0.63209       -0.40075        1.24079
I          0.39007        1.86490       -0.44958
I          3.17223       -0.04336        0.02874
