11

Si         0.94947        0.04766        0.02865
H          0.44227        1.23052        0.76937
H          0.44227        0.14282       -1.36375
C          0.30022       -1.49584        0.81569
C          2.79938        0.07848        0.01293
H         -0.79406       -1.50530        0.82051
H          0.63973       -1.58258        1.85243
H          0.63973       -2.38590        0.27702
H          3.17414        0.99444       -0.45412
H          3.20308       -0.77113       -0.54636
H          3.20308        0.03218        1.02905
