6

C          1.05410        0.08404       -0.04725
C          0.38826       -1.04243        0.19993
F          0.37757        1.22286       -0.29714
F          2.40208        0.08118       -0.04662
H         -0.69442       -1.05071        0.20175
H          0.92226       -1.96241        0.40180
