8

C          0.94314        0.04401       -0.06950
C          0.28612       -0.87652        0.59957
C         -1.11988       -0.87652        0.59957
N         -2.27089       -0.87652        0.59957
C          2.34914        0.04401       -0.06950
N          3.50015        0.04401       -0.06950
H          0.44277        0.82304       -0.63571
H          0.78649       -1.65555        1.16578
