5

C          0.93904       -0.04103        0.03117
C         -0.35644       -0.04103        0.03117
O          2.11360       -0.04103        0.03117
H         -0.90095       -0.56211       -0.74453
H         -0.90095        0.48005        0.80686
