5

Mg         0.96592        0.51437        0.60363
O         -0.66142       -0.34820       -0.18087
O          2.59272       -0.11353       -0.37870
H         -1.31022       -0.37999        0.56773
H          3.24168        0.62968       -0.28398
