5

C          0.84563        0.10332        0.36194
C          2.05228        0.00043       -0.09308
O          1.02533       -0.18978       -0.93432
H          0.08879        0.26235        1.06525
H          3.09734        0.00582       -0.06925
