10

C         -0.63591       -1.24331       -0.02307
C         -1.39400       -0.08213       -0.02605
C         -0.73006        1.12651        0.05893
N          0.61344        1.21360        0.14111
N          1.35754        0.07386        0.14405
C          0.73751       -1.12139        0.06470
H         -1.10275       -2.21936       -0.08627
H         -2.47524       -0.11710       -0.09165
H         -1.25863        2.07246        0.06495
H          1.39088       -1.98582        0.07538
