26

C          0.93396        0.07222       -0.03241
C          0.40159       -0.37533        1.40531
C          0.88481       -1.79575        1.78645
C          0.88481        0.57779        2.52532
C         -1.14491       -0.39569        1.47069
C          0.45074        1.49264       -0.41354
C          0.45075       -0.88091       -1.15241
C          2.48047        0.09257       -0.09779
H          1.97594       -1.85838        1.83506
H          0.52748       -2.55308        1.08245
H          0.50892       -2.08399        2.77595
H          1.97593        0.60176        2.60088
H          0.50891        0.25347        3.50358
H          0.52747        1.60089        2.37555
H         -1.57629       -1.10193        0.75518
H         -1.57630        0.59189        1.28245
H         -1.48994       -0.70521        2.46500
H         -0.64038        1.55526       -0.46215
H          0.82664        1.78087       -1.40305
H          0.80808        2.24996        0.29045
H         -0.64038       -0.90488       -1.22797
H          0.80808       -1.90400       -1.00264
H          0.82664       -0.55659       -2.13068
H          2.91185        0.79882        0.61773
H          2.82550        0.40209       -1.09209
H          2.91185       -0.89500        0.09045
